<?xml version="1.0" encoding="UTF-8"?>
<model ref="r:e1747b17-3913-4d6b-b45c-af3ef3de533d(hfu.mps.StreamSysT.behavior)">
  <persistence version="9" />
  <languages>
    <use id="7866978e-a0f0-4cc7-81bc-4d213d9375e1" name="jetbrains.mps.lang.smodel" version="17" />
    <use id="af65afd8-f0dd-4942-87d9-63a55f2a9db1" name="jetbrains.mps.lang.behavior" version="2" />
    <devkit ref="fbc25dd2-5da4-483a-8b19-70928e1b62d7(jetbrains.mps.devkit.general-purpose)" />
  </languages>
  <imports>
    <import index="o8zo" ref="r:314576fc-3aee-4386-a0a5-a38348ac317d(jetbrains.mps.scope)" />
    <import index="tpcu" ref="r:00000000-0000-4000-0000-011c89590282(jetbrains.mps.lang.core.behavior)" />
    <import index="tpck" ref="r:00000000-0000-4000-0000-011c89590288(jetbrains.mps.lang.core.structure)" />
    <import index="tpek" ref="r:00000000-0000-4000-0000-011c895902c0(jetbrains.mps.baseLanguage.behavior)" />
    <import index="tpee" ref="r:00000000-0000-4000-0000-011c895902ca(jetbrains.mps.baseLanguage.structure)" />
    <import index="qyjc" ref="r:c6b19f28-306e-466c-a8f5-aa6eea606f72(hfu.mps.StreamSysT.structure)" />
    <import index="1piv" ref="r:5b903417-c6eb-4585-9637-67e9bcc9f50c(hfu.mps.StreamSysT.typesystem)" />
    <import index="tp25" ref="r:00000000-0000-4000-0000-011c89590301(jetbrains.mps.lang.smodel.structure)" />
    <import index="tpeq" ref="r:00000000-0000-4000-0000-011c895902fe(jetbrains.mps.lang.smodel.typesystem)" />
  </imports>
  <registry>
    <language id="af65afd8-f0dd-4942-87d9-63a55f2a9db1" name="jetbrains.mps.lang.behavior">
      <concept id="6496299201655527393" name="jetbrains.mps.lang.behavior.structure.LocalBehaviorMethodCall" flags="nn" index="BsUDl" />
      <concept id="1225194240794" name="jetbrains.mps.lang.behavior.structure.ConceptBehavior" flags="ng" index="13h7C7">
        <reference id="1225194240799" name="concept" index="13h7C2" />
        <child id="1225194240805" name="method" index="13h7CS" />
        <child id="1225194240801" name="constructor" index="13h7CW" />
      </concept>
      <concept id="1225194413805" name="jetbrains.mps.lang.behavior.structure.ConceptConstructorDeclaration" flags="in" index="13hLZK" />
      <concept id="1225194472830" name="jetbrains.mps.lang.behavior.structure.ConceptMethodDeclaration" flags="ng" index="13i0hz">
        <property id="5864038008284099149" name="isStatic" index="2Ki8OM" />
        <reference id="1225194472831" name="overriddenMethod" index="13i0hy" />
      </concept>
      <concept id="1225194628440" name="jetbrains.mps.lang.behavior.structure.SuperNodeExpression" flags="nn" index="13iAh5">
        <reference id="5299096511375896640" name="superConcept" index="3eA5LN" />
      </concept>
      <concept id="1225194691553" name="jetbrains.mps.lang.behavior.structure.ThisNodeExpression" flags="nn" index="13iPFW" />
    </language>
    <language id="f3061a53-9226-4cc5-a443-f952ceaf5816" name="jetbrains.mps.baseLanguage">
      <concept id="1215693861676" name="jetbrains.mps.baseLanguage.structure.BaseAssignmentExpression" flags="nn" index="d038R">
        <child id="1068498886297" name="rValue" index="37vLTx" />
        <child id="1068498886295" name="lValue" index="37vLTJ" />
      </concept>
      <concept id="1154032098014" name="jetbrains.mps.baseLanguage.structure.AbstractLoopStatement" flags="nn" index="2LF5Ji">
        <child id="1154032183016" name="body" index="2LFqv$" />
      </concept>
      <concept id="1197027756228" name="jetbrains.mps.baseLanguage.structure.DotExpression" flags="nn" index="2OqwBi">
        <child id="1197027771414" name="operand" index="2Oq$k0" />
        <child id="1197027833540" name="operation" index="2OqNvi" />
      </concept>
      <concept id="1145552977093" name="jetbrains.mps.baseLanguage.structure.GenericNewExpression" flags="nn" index="2ShNRf">
        <child id="1145553007750" name="creator" index="2ShVmc" />
      </concept>
      <concept id="1137021947720" name="jetbrains.mps.baseLanguage.structure.ConceptFunction" flags="in" index="2VMwT0">
        <child id="1137022507850" name="body" index="2VODD2" />
      </concept>
      <concept id="1070475926800" name="jetbrains.mps.baseLanguage.structure.StringLiteral" flags="nn" index="Xl_RD">
        <property id="1070475926801" name="value" index="Xl_RC" />
      </concept>
      <concept id="1081236700937" name="jetbrains.mps.baseLanguage.structure.StaticMethodCall" flags="nn" index="2YIFZM">
        <reference id="1144433194310" name="classConcept" index="1Pybhc" />
      </concept>
      <concept id="1070534058343" name="jetbrains.mps.baseLanguage.structure.NullLiteral" flags="nn" index="10Nm6u" />
      <concept id="1068431474542" name="jetbrains.mps.baseLanguage.structure.VariableDeclaration" flags="ng" index="33uBYm">
        <child id="1068431790190" name="initializer" index="33vP2m" />
      </concept>
      <concept id="1068498886296" name="jetbrains.mps.baseLanguage.structure.VariableReference" flags="nn" index="37vLTw">
        <reference id="1068581517664" name="variableDeclaration" index="3cqZAo" />
      </concept>
      <concept id="1068498886292" name="jetbrains.mps.baseLanguage.structure.ParameterDeclaration" flags="ir" index="37vLTG" />
      <concept id="1068498886294" name="jetbrains.mps.baseLanguage.structure.AssignmentExpression" flags="nn" index="37vLTI" />
      <concept id="1225271177708" name="jetbrains.mps.baseLanguage.structure.StringType" flags="in" index="17QB3L" />
      <concept id="4972933694980447171" name="jetbrains.mps.baseLanguage.structure.BaseVariableDeclaration" flags="ng" index="19Szcq">
        <child id="5680397130376446158" name="type" index="1tU5fm" />
      </concept>
      <concept id="1068580123132" name="jetbrains.mps.baseLanguage.structure.BaseMethodDeclaration" flags="ng" index="3clF44">
        <child id="1068580123133" name="returnType" index="3clF45" />
        <child id="1068580123134" name="parameter" index="3clF46" />
        <child id="1068580123135" name="body" index="3clF47" />
      </concept>
      <concept id="1068580123152" name="jetbrains.mps.baseLanguage.structure.EqualsExpression" flags="nn" index="3clFbC" />
      <concept id="1068580123155" name="jetbrains.mps.baseLanguage.structure.ExpressionStatement" flags="nn" index="3clFbF">
        <child id="1068580123156" name="expression" index="3clFbG" />
      </concept>
      <concept id="1068580123157" name="jetbrains.mps.baseLanguage.structure.Statement" flags="nn" index="3clFbH" />
      <concept id="1068580123159" name="jetbrains.mps.baseLanguage.structure.IfStatement" flags="nn" index="3clFbJ">
        <child id="1068580123160" name="condition" index="3clFbw" />
        <child id="1068580123161" name="ifTrue" index="3clFbx" />
      </concept>
      <concept id="1068580123136" name="jetbrains.mps.baseLanguage.structure.StatementList" flags="sn" stub="5293379017992965193" index="3clFbS">
        <child id="1068581517665" name="statement" index="3cqZAp" />
      </concept>
      <concept id="1068581242875" name="jetbrains.mps.baseLanguage.structure.PlusExpression" flags="nn" index="3cpWs3" />
      <concept id="1068581242878" name="jetbrains.mps.baseLanguage.structure.ReturnStatement" flags="nn" index="3cpWs6">
        <child id="1068581517676" name="expression" index="3cqZAk" />
      </concept>
      <concept id="1068581242864" name="jetbrains.mps.baseLanguage.structure.LocalVariableDeclarationStatement" flags="nn" index="3cpWs8">
        <child id="1068581242865" name="localVariableDeclaration" index="3cpWs9" />
      </concept>
      <concept id="1068581242863" name="jetbrains.mps.baseLanguage.structure.LocalVariableDeclaration" flags="nr" index="3cpWsn" />
      <concept id="1204053956946" name="jetbrains.mps.baseLanguage.structure.IMethodCall" flags="ng" index="1ndlxa">
        <reference id="1068499141037" name="baseMethodDeclaration" index="37wK5l" />
        <child id="1068499141038" name="actualArgument" index="37wK5m" />
      </concept>
      <concept id="1212685548494" name="jetbrains.mps.baseLanguage.structure.ClassCreator" flags="nn" index="1pGfFk" />
      <concept id="1107535904670" name="jetbrains.mps.baseLanguage.structure.ClassifierType" flags="in" index="3uibUv">
        <reference id="1107535924139" name="classifier" index="3uigEE" />
      </concept>
      <concept id="1081773326031" name="jetbrains.mps.baseLanguage.structure.BinaryOperation" flags="nn" index="3uHJSO">
        <child id="1081773367579" name="rightExpression" index="3uHU7w" />
        <child id="1081773367580" name="leftExpression" index="3uHU7B" />
      </concept>
      <concept id="1081855346303" name="jetbrains.mps.baseLanguage.structure.BreakStatement" flags="nn" index="3zACq4" />
      <concept id="1178549954367" name="jetbrains.mps.baseLanguage.structure.IVisible" flags="ng" index="1B3ioH">
        <child id="1178549979242" name="visibility" index="1B3o_S" />
      </concept>
      <concept id="1146644602865" name="jetbrains.mps.baseLanguage.structure.PublicVisibility" flags="nn" index="3Tm1VV" />
    </language>
    <language id="760a0a8c-eabb-4521-8bfd-65db761a9ba3" name="jetbrains.mps.baseLanguage.logging">
      <concept id="6332851714983831325" name="jetbrains.mps.baseLanguage.logging.structure.MsgStatement" flags="ng" index="2xdQw9">
        <property id="6332851714983843871" name="severity" index="2xdLsb" />
        <child id="5721587534047265374" name="message" index="9lYJi" />
      </concept>
    </language>
    <language id="7866978e-a0f0-4cc7-81bc-4d213d9375e1" name="jetbrains.mps.lang.smodel">
      <concept id="1177026924588" name="jetbrains.mps.lang.smodel.structure.RefConcept_Reference" flags="nn" index="chp4Y">
        <reference id="1177026940964" name="conceptDeclaration" index="cht4Q" />
      </concept>
      <concept id="1140725362528" name="jetbrains.mps.lang.smodel.structure.Link_SetTargetOperation" flags="nn" index="2oxUTD">
        <child id="1140725362529" name="linkTarget" index="2oxUTC" />
      </concept>
      <concept id="1179409122411" name="jetbrains.mps.lang.smodel.structure.Node_ConceptMethodCall" flags="nn" index="2qgKlT" />
      <concept id="4693937538533521280" name="jetbrains.mps.lang.smodel.structure.OfConceptOperation" flags="ng" index="v3k3i">
        <child id="4693937538533538124" name="requestedConcept" index="v3oSu" />
      </concept>
      <concept id="1139184414036" name="jetbrains.mps.lang.smodel.structure.LinkList_AddNewChildOperation" flags="nn" index="WFELt" />
      <concept id="2644386474301421077" name="jetbrains.mps.lang.smodel.structure.LinkIdRefExpression" flags="nn" index="359W_D">
        <reference id="2644386474301421078" name="conceptDeclaration" index="359W_E" />
        <reference id="2644386474301421079" name="linkDeclaration" index="359W_F" />
      </concept>
      <concept id="6677504323281689838" name="jetbrains.mps.lang.smodel.structure.SConceptType" flags="in" index="3bZ5Sz" />
      <concept id="1171999116870" name="jetbrains.mps.lang.smodel.structure.Node_IsNullOperation" flags="nn" index="3w_OXm" />
      <concept id="1180636770613" name="jetbrains.mps.lang.smodel.structure.SNodeCreator" flags="nn" index="3zrR0B">
        <child id="1180636770616" name="createdType" index="3zrR0E" />
      </concept>
      <concept id="1172326502327" name="jetbrains.mps.lang.smodel.structure.Concept_IsExactlyOperation" flags="nn" index="3O6GUB">
        <child id="1206733650006" name="conceptArgument" index="3QVz_e" />
      </concept>
      <concept id="1138055754698" name="jetbrains.mps.lang.smodel.structure.SNodeType" flags="in" index="3Tqbb2">
        <reference id="1138405853777" name="concept" index="ehGHo" />
      </concept>
      <concept id="1138056022639" name="jetbrains.mps.lang.smodel.structure.SPropertyAccess" flags="nn" index="3TrcHB">
        <reference id="1138056395725" name="property" index="3TsBF5" />
      </concept>
      <concept id="1138056143562" name="jetbrains.mps.lang.smodel.structure.SLinkAccess" flags="nn" index="3TrEf2">
        <reference id="1138056516764" name="link" index="3Tt5mk" />
      </concept>
      <concept id="1138056282393" name="jetbrains.mps.lang.smodel.structure.SLinkListAccess" flags="nn" index="3Tsc0h">
        <reference id="1138056546658" name="link" index="3TtcxE" />
      </concept>
    </language>
    <language id="ceab5195-25ea-4f22-9b92-103b95ca8c0c" name="jetbrains.mps.lang.core">
      <concept id="1133920641626" name="jetbrains.mps.lang.core.structure.BaseConcept" flags="ng" index="2VYdi">
        <property id="1193676396447" name="virtualPackage" index="3GE5qa" />
      </concept>
      <concept id="1169194658468" name="jetbrains.mps.lang.core.structure.INamedConcept" flags="ng" index="TrEIO">
        <property id="1169194664001" name="name" index="TrG5h" />
      </concept>
    </language>
    <language id="83888646-71ce-4f1c-9c53-c54016f6ad4f" name="jetbrains.mps.baseLanguage.collections">
      <concept id="540871147943773365" name="jetbrains.mps.baseLanguage.collections.structure.SingleArgumentSequenceOperation" flags="nn" index="25WWJ4">
        <child id="540871147943773366" name="argument" index="25WWJ7" />
      </concept>
      <concept id="1151689724996" name="jetbrains.mps.baseLanguage.collections.structure.SequenceType" flags="in" index="A3Dl8">
        <child id="1151689745422" name="elementType" index="A3Ik2" />
      </concept>
      <concept id="1153943597977" name="jetbrains.mps.baseLanguage.collections.structure.ForEachStatement" flags="nn" index="2Gpval">
        <child id="1153944400369" name="variable" index="2Gsz3X" />
        <child id="1153944424730" name="inputSequence" index="2GsD0m" />
      </concept>
      <concept id="1153944193378" name="jetbrains.mps.baseLanguage.collections.structure.ForEachVariable" flags="nr" index="2GrKxI" />
      <concept id="1153944233411" name="jetbrains.mps.baseLanguage.collections.structure.ForEachVariableReference" flags="nn" index="2GrUjf">
        <reference id="1153944258490" name="variable" index="2Gs0qQ" />
      </concept>
      <concept id="1160666733551" name="jetbrains.mps.baseLanguage.collections.structure.AddAllElementsOperation" flags="nn" index="X8dFx" />
    </language>
  </registry>
  <node concept="13h7C7" id="yQ4gUuQSD4">
    <property role="3GE5qa" value="Pointer" />
    <ref role="13h7C2" to="qyjc:yQ4gUuO8YZ" resolve="SourcePipelinePointer" />
    <node concept="13hLZK" id="yQ4gUuQSD5" role="13h7CW">
      <node concept="3clFbS" id="yQ4gUuQSD6" role="2VODD2" />
    </node>
    <node concept="13i0hz" id="yQ4gUuQSDf" role="13h7CS">
      <property role="TrG5h" value="getPipelineRef" />
      <node concept="3Tm1VV" id="yQ4gUuQSDg" role="1B3o_S" />
      <node concept="3Tqbb2" id="yQ4gUuQSDv" role="3clF45">
        <ref role="ehGHo" to="qyjc:7MdWNyBagav" resolve="PipelineRef" />
      </node>
      <node concept="3clFbS" id="yQ4gUuQSDi" role="3clF47">
        <node concept="3cpWs8" id="yQ4gUuQWYN" role="3cqZAp">
          <node concept="3cpWsn" id="yQ4gUuQWYQ" role="3cpWs9">
            <property role="TrG5h" value="pipeRef" />
            <node concept="3Tqbb2" id="yQ4gUuQWYM" role="1tU5fm">
              <ref role="ehGHo" to="qyjc:7MdWNyBagav" resolve="PipelineRef" />
            </node>
            <node concept="10Nm6u" id="yQ4gUuQX0P" role="33vP2m" />
          </node>
        </node>
        <node concept="3clFbH" id="6MwzKcXURxm" role="3cqZAp" />
        <node concept="2Gpval" id="yQ4gUuQX27" role="3cqZAp">
          <node concept="2GrKxI" id="yQ4gUuQX29" role="2Gsz3X">
            <property role="TrG5h" value="pipelineRef" />
          </node>
          <node concept="2OqwBi" id="4vp2seWffyz" role="2GsD0m">
            <node concept="2OqwBi" id="Jw6Yu7SRt4" role="2Oq$k0">
              <node concept="2OqwBi" id="yQ4gUuQXuy" role="2Oq$k0">
                <node concept="13iPFW" id="yQ4gUuQX4f" role="2Oq$k0" />
                <node concept="3TrEf2" id="4vp2seWfeWx" role="2OqNvi">
                  <ref role="3Tt5mk" to="qyjc:4vp2seWfeuM" resolve="sourceRef" />
                </node>
              </node>
              <node concept="3TrEf2" id="4vp2seWffi0" role="2OqNvi">
                <ref role="3Tt5mk" to="qyjc:RoIJycd2v7" resolve="ref" />
              </node>
            </node>
            <node concept="3Tsc0h" id="4vp2seWfgcC" role="2OqNvi">
              <ref role="3TtcxE" to="qyjc:Jw6Yu7OXjr" resolve="attachTo" />
            </node>
          </node>
          <node concept="3clFbS" id="yQ4gUuQX2d" role="2LFqv$">
            <node concept="3clFbJ" id="yQ4gUuQXyR" role="3cqZAp">
              <node concept="3clFbC" id="yQ4gUuQY5X" role="3clFbw">
                <node concept="2OqwBi" id="4vp2seWfgz4" role="3uHU7w">
                  <node concept="2OqwBi" id="yQ4gUuQYoB" role="2Oq$k0">
                    <node concept="13iPFW" id="yQ4gUuQYcS" role="2Oq$k0" />
                    <node concept="3TrEf2" id="4vp2seWfeZe" role="2OqNvi">
                      <ref role="3Tt5mk" to="qyjc:4vp2seWfeuV" resolve="pipelineRef" />
                    </node>
                  </node>
                  <node concept="3TrEf2" id="4vp2seWfgHp" role="2OqNvi">
                    <ref role="3Tt5mk" to="qyjc:7MdWNyBagaw" resolve="ref" />
                  </node>
                </node>
                <node concept="2OqwBi" id="yQ4gUuQXGg" role="3uHU7B">
                  <node concept="2GrUjf" id="yQ4gUuQXzd" role="2Oq$k0">
                    <ref role="2Gs0qQ" node="yQ4gUuQX29" resolve="pipelineRef" />
                  </node>
                  <node concept="3TrEf2" id="Jw6Yu7SSMq" role="2OqNvi">
                    <ref role="3Tt5mk" to="qyjc:7MdWNyBagaw" resolve="ref" />
                  </node>
                </node>
              </node>
              <node concept="3clFbS" id="yQ4gUuQXyT" role="3clFbx">
                <node concept="3clFbF" id="yQ4gUuQYWd" role="3cqZAp">
                  <node concept="37vLTI" id="yQ4gUuQZ3y" role="3clFbG">
                    <node concept="2GrUjf" id="yQ4gUuQZ5H" role="37vLTx">
                      <ref role="2Gs0qQ" node="yQ4gUuQX29" resolve="pipelineRef" />
                    </node>
                    <node concept="37vLTw" id="yQ4gUuQYWc" role="37vLTJ">
                      <ref role="3cqZAo" node="yQ4gUuQWYQ" resolve="pipeRef" />
                    </node>
                  </node>
                </node>
                <node concept="3zACq4" id="yQ4gUuQZ6k" role="3cqZAp" />
              </node>
            </node>
          </node>
        </node>
        <node concept="3clFbH" id="6MwzKcXURRF" role="3cqZAp" />
        <node concept="3clFbJ" id="7Xz8r_MVSOw" role="3cqZAp">
          <node concept="3clFbS" id="7Xz8r_MVSOy" role="3clFbx">
            <node concept="2xdQw9" id="7Xz8r_MVTg7" role="3cqZAp">
              <property role="2xdLsb" value="gZ5fh_4/error" />
              <node concept="3cpWs3" id="7Xz8r_MVWKl" role="9lYJi">
                <node concept="Xl_RD" id="7Xz8r_MVWWk" role="3uHU7w">
                  <property role="Xl_RC" value="!" />
                </node>
                <node concept="3cpWs3" id="7Xz8r_MVVh6" role="3uHU7B">
                  <node concept="3cpWs3" id="7Xz8r_MVUFm" role="3uHU7B">
                    <node concept="3cpWs3" id="7Xz8r_MVTzz" role="3uHU7B">
                      <node concept="Xl_RD" id="7Xz8r_MVTg9" role="3uHU7B">
                        <property role="Xl_RC" value="Pipeline '" />
                      </node>
                      <node concept="2OqwBi" id="7Xz8r_MVU4M" role="3uHU7w">
                        <node concept="2OqwBi" id="4vp2seWfh8g" role="2Oq$k0">
                          <node concept="2OqwBi" id="7Xz8r_MVTL5" role="2Oq$k0">
                            <node concept="13iPFW" id="7Xz8r_MVT$s" role="2Oq$k0" />
                            <node concept="3TrEf2" id="4vp2seWfgQJ" role="2OqNvi">
                              <ref role="3Tt5mk" to="qyjc:4vp2seWfeuV" resolve="pipelineRef" />
                            </node>
                          </node>
                          <node concept="3TrEf2" id="4vp2seWfhjj" role="2OqNvi">
                            <ref role="3Tt5mk" to="qyjc:7MdWNyBagaw" resolve="ref" />
                          </node>
                        </node>
                        <node concept="3TrcHB" id="Jw6Yu7SUg6" role="2OqNvi">
                          <ref role="3TsBF5" to="tpck:h0TrG11" resolve="name" />
                        </node>
                      </node>
                    </node>
                    <node concept="Xl_RD" id="7Xz8r_MVUGv" role="3uHU7w">
                      <property role="Xl_RC" value="' is not attached to source '" />
                    </node>
                  </node>
                  <node concept="2OqwBi" id="7Xz8r_MVVVf" role="3uHU7w">
                    <node concept="2OqwBi" id="4vp2seWfhzP" role="2Oq$k0">
                      <node concept="2OqwBi" id="7Xz8r_MVVCh" role="2Oq$k0">
                        <node concept="13iPFW" id="7Xz8r_MVVrl" role="2Oq$k0" />
                        <node concept="3TrEf2" id="4vp2seWfhr2" role="2OqNvi">
                          <ref role="3Tt5mk" to="qyjc:4vp2seWfeuM" resolve="sourceRef" />
                        </node>
                      </node>
                      <node concept="3TrEf2" id="4vp2seWfhLP" role="2OqNvi">
                        <ref role="3Tt5mk" to="qyjc:RoIJycd2v7" resolve="ref" />
                      </node>
                    </node>
                    <node concept="3TrcHB" id="Jw6Yu7SUED" role="2OqNvi">
                      <ref role="3TsBF5" to="tpck:h0TrG11" resolve="name" />
                    </node>
                  </node>
                </node>
              </node>
            </node>
          </node>
          <node concept="2OqwBi" id="7Xz8r_MVT5r" role="3clFbw">
            <node concept="37vLTw" id="7Xz8r_MVSQx" role="2Oq$k0">
              <ref role="3cqZAo" node="yQ4gUuQWYQ" resolve="pipeRef" />
            </node>
            <node concept="3w_OXm" id="7Xz8r_MVTcm" role="2OqNvi" />
          </node>
        </node>
        <node concept="3cpWs6" id="yQ4gUuQWZY" role="3cqZAp">
          <node concept="37vLTw" id="yQ4gUuQX0r" role="3cqZAk">
            <ref role="3cqZAo" node="yQ4gUuQWYQ" resolve="pipeRef" />
          </node>
        </node>
      </node>
    </node>
  </node>
  <node concept="13h7C7" id="5fBz7OV28TI">
    <ref role="13h7C2" to="qyjc:5T7UbTDgCbd" resolve="StreamTestMethod" />
    <node concept="13i0hz" id="5fBz7OV8wTT" role="13h7CS">
      <property role="2Ki8OM" value="true" />
      <property role="TrG5h" value="createFromSuperClass" />
      <node concept="3Tm1VV" id="5fBz7OV8wTU" role="1B3o_S" />
      <node concept="3Tqbb2" id="5fBz7OV8xKx" role="3clF45">
        <ref role="ehGHo" to="qyjc:5T7UbTDgCbd" resolve="StreamTestMethod" />
      </node>
      <node concept="3clFbS" id="5fBz7OV8wTW" role="3clF47">
        <node concept="3cpWs8" id="5fBz7OV5EiQ" role="3cqZAp">
          <node concept="3cpWsn" id="5fBz7OV5EiT" role="3cpWs9">
            <property role="TrG5h" value="streamTest" />
            <node concept="3Tqbb2" id="5fBz7OV5EiP" role="1tU5fm">
              <ref role="ehGHo" to="qyjc:5T7UbTDgCbd" resolve="StreamTestMethod" />
            </node>
            <node concept="2ShNRf" id="5fBz7OV5EkN" role="33vP2m">
              <node concept="3zrR0B" id="5fBz7OV5E$$" role="2ShVmc">
                <node concept="3Tqbb2" id="5fBz7OV5E$A" role="3zrR0E">
                  <ref role="ehGHo" to="qyjc:5T7UbTDgCbd" resolve="StreamTestMethod" />
                </node>
              </node>
            </node>
          </node>
        </node>
        <node concept="3clFbF" id="5fBz7OV5E_J" role="3cqZAp">
          <node concept="2OqwBi" id="5fBz7OV5Gi6" role="3clFbG">
            <node concept="2OqwBi" id="5fBz7OV5F73" role="2Oq$k0">
              <node concept="37vLTw" id="5fBz7OV5E_H" role="2Oq$k0">
                <ref role="3cqZAo" node="5fBz7OV5EiT" resolve="streamTest" />
              </node>
              <node concept="3TrEf2" id="5fBz7OV5FWE" role="2OqNvi">
                <ref role="3Tt5mk" to="tpee:fzclF7Z" resolve="body" />
              </node>
            </node>
            <node concept="2oxUTD" id="5fBz7OV5H7C" role="2OqNvi">
              <node concept="2OqwBi" id="5fBz7OV5HGq" role="2oxUTC">
                <node concept="37vLTw" id="5fBz7OV8Gp3" role="2Oq$k0">
                  <ref role="3cqZAo" node="5fBz7OV8xLT" resolve="other" />
                </node>
                <node concept="3TrEf2" id="5fBz7OV5IyX" role="2OqNvi">
                  <ref role="3Tt5mk" to="tpee:fzclF7Z" resolve="body" />
                </node>
              </node>
            </node>
          </node>
        </node>
        <node concept="3clFbF" id="5fBz7OV5ZPv" role="3cqZAp">
          <node concept="2OqwBi" id="5fBz7OV62XS" role="3clFbG">
            <node concept="2OqwBi" id="5fBz7OV60iR" role="2Oq$k0">
              <node concept="37vLTw" id="5fBz7OV5ZPt" role="2Oq$k0">
                <ref role="3cqZAo" node="5fBz7OV5EiT" resolve="streamTest" />
              </node>
              <node concept="3Tsc0h" id="5fBz7OV618x" role="2OqNvi">
                <ref role="3TtcxE" to="tpee:hiAJF2X" resolve="annotation" />
              </node>
            </node>
            <node concept="WFELt" id="5fBz7OV65dN" role="2OqNvi" />
          </node>
        </node>
        <node concept="3clFbF" id="5fBz7OV65gv" role="3cqZAp">
          <node concept="2OqwBi" id="5fBz7OV69v3" role="3clFbG">
            <node concept="2OqwBi" id="5fBz7OV65NQ" role="2Oq$k0">
              <node concept="37vLTw" id="5fBz7OV65gt" role="2Oq$k0">
                <ref role="3cqZAo" node="5fBz7OV5EiT" resolve="streamTest" />
              </node>
              <node concept="3Tsc0h" id="5fBz7OV66Dt" role="2OqNvi">
                <ref role="3TtcxE" to="tpee:hiAJF2X" resolve="annotation" />
              </node>
            </node>
            <node concept="X8dFx" id="5fBz7OV6b9j" role="2OqNvi">
              <node concept="2OqwBi" id="5fBz7OV6f0G" role="25WWJ7">
                <node concept="37vLTw" id="5fBz7OV8GCo" role="2Oq$k0">
                  <ref role="3cqZAo" node="5fBz7OV8xLT" resolve="other" />
                </node>
                <node concept="3Tsc0h" id="5fBz7OV6iz2" role="2OqNvi">
                  <ref role="3TtcxE" to="tpee:hiAJF2X" resolve="annotation" />
                </node>
              </node>
            </node>
          </node>
        </node>
        <node concept="3clFbF" id="5fBz7OV6lJt" role="3cqZAp">
          <node concept="37vLTI" id="5fBz7OV6ohq" role="3clFbG">
            <node concept="2OqwBi" id="5fBz7OV6oPP" role="37vLTx">
              <node concept="37vLTw" id="5fBz7OV8GU0" role="2Oq$k0">
                <ref role="3cqZAo" node="5fBz7OV8xLT" resolve="other" />
              </node>
              <node concept="3TrcHB" id="5fBz7OV6pMW" role="2OqNvi">
                <ref role="3TsBF5" to="tpee:h9EzhlX" resolve="isAbstract" />
              </node>
            </node>
            <node concept="2OqwBi" id="5fBz7OV6n3n" role="37vLTJ">
              <node concept="37vLTw" id="5fBz7OV6lJr" role="2Oq$k0">
                <ref role="3cqZAo" node="5fBz7OV5EiT" resolve="streamTest" />
              </node>
              <node concept="3TrcHB" id="5fBz7OV6nSY" role="2OqNvi">
                <ref role="3TsBF5" to="tpee:h9EzhlX" resolve="isAbstract" />
              </node>
            </node>
          </node>
        </node>
        <node concept="3clFbF" id="5fBz7OV6sWv" role="3cqZAp">
          <node concept="37vLTI" id="5fBz7OV6wZc" role="3clFbG">
            <node concept="2OqwBi" id="5fBz7OV6xz$" role="37vLTx">
              <node concept="37vLTw" id="5fBz7OV8H1E" role="2Oq$k0">
                <ref role="3cqZAo" node="5fBz7OV8xLT" resolve="other" />
              </node>
              <node concept="3TrcHB" id="5fBz7OV6yqQ" role="2OqNvi">
                <ref role="3TsBF5" to="tpee:hOIEky$" resolve="isDeprecated" />
              </node>
            </node>
            <node concept="2OqwBi" id="5fBz7OV6vuw" role="37vLTJ">
              <node concept="37vLTw" id="5fBz7OV6sWt" role="2Oq$k0">
                <ref role="3cqZAo" node="5fBz7OV5EiT" resolve="streamTest" />
              </node>
              <node concept="3TrcHB" id="5fBz7OV6vEd" role="2OqNvi">
                <ref role="3TsBF5" to="tpee:hOIEky$" resolve="isDeprecated" />
              </node>
            </node>
          </node>
        </node>
        <node concept="3clFbF" id="5fBz7OV6yLM" role="3cqZAp">
          <node concept="37vLTI" id="5fBz7OV6A93" role="3clFbG">
            <node concept="2OqwBi" id="5fBz7OV6AD_" role="37vLTx">
              <node concept="37vLTw" id="5fBz7OV8Hdw" role="2Oq$k0">
                <ref role="3cqZAo" node="5fBz7OV8xLT" resolve="other" />
              </node>
              <node concept="3TrcHB" id="5fBz7OV6BAG" role="2OqNvi">
                <ref role="3TsBF5" to="tpee:hcDiZZi" resolve="isFinal" />
              </node>
            </node>
            <node concept="2OqwBi" id="5fBz7OV6_0P" role="37vLTJ">
              <node concept="37vLTw" id="5fBz7OV6yLK" role="2Oq$k0">
                <ref role="3cqZAo" node="5fBz7OV5EiT" resolve="streamTest" />
              </node>
              <node concept="3TrcHB" id="5fBz7OV6_Qs" role="2OqNvi">
                <ref role="3TsBF5" to="tpee:hcDiZZi" resolve="isFinal" />
              </node>
            </node>
          </node>
        </node>
        <node concept="3clFbF" id="5fBz7OV6CII" role="3cqZAp">
          <node concept="37vLTI" id="5fBz7OV6FoN" role="3clFbG">
            <node concept="2OqwBi" id="5fBz7OV6FT_" role="37vLTx">
              <node concept="37vLTw" id="5fBz7OV8Hh_" role="2Oq$k0">
                <ref role="3cqZAo" node="5fBz7OV8xLT" resolve="other" />
              </node>
              <node concept="3TrcHB" id="5fBz7OV6GKR" role="2OqNvi">
                <ref role="3TsBF5" to="tpee:7fN3zRTn0HN" resolve="isNative" />
              </node>
            </node>
            <node concept="2OqwBi" id="5fBz7OV6DS7" role="37vLTJ">
              <node concept="37vLTw" id="5fBz7OV6CIG" role="2Oq$k0">
                <ref role="3cqZAo" node="5fBz7OV5EiT" resolve="streamTest" />
              </node>
              <node concept="3TrcHB" id="5fBz7OV6E3O" role="2OqNvi">
                <ref role="3TsBF5" to="tpee:7fN3zRTn0HN" resolve="isNative" />
              </node>
            </node>
          </node>
        </node>
        <node concept="3clFbF" id="5fBz7OV6HaW" role="3cqZAp">
          <node concept="37vLTI" id="5fBz7OV6Ljy" role="3clFbG">
            <node concept="2OqwBi" id="5fBz7OV6LTD" role="37vLTx">
              <node concept="37vLTw" id="5fBz7OV8HlE" role="2Oq$k0">
                <ref role="3cqZAo" node="5fBz7OV8xLT" resolve="other" />
              </node>
              <node concept="3TrcHB" id="5fBz7OV6MR3" role="2OqNvi">
                <ref role="3TsBF5" to="tpee:3HnrdCzoiLU" resolve="isSynchronized" />
              </node>
            </node>
            <node concept="2OqwBi" id="5fBz7OV6Kbk" role="37vLTJ">
              <node concept="37vLTw" id="5fBz7OV6HaU" role="2Oq$k0">
                <ref role="3cqZAo" node="5fBz7OV5EiT" resolve="streamTest" />
              </node>
              <node concept="3TrcHB" id="5fBz7OV6L0V" role="2OqNvi">
                <ref role="3TsBF5" to="tpee:3HnrdCzoiLU" resolve="isSynchronized" />
              </node>
            </node>
          </node>
        </node>
        <node concept="3clFbF" id="5fBz7OV6NXX" role="3cqZAp">
          <node concept="37vLTI" id="5fBz7OV6PQM" role="3clFbG">
            <node concept="2OqwBi" id="5fBz7OV6Qmv" role="37vLTx">
              <node concept="37vLTw" id="5fBz7OV8Hqp" role="2Oq$k0">
                <ref role="3cqZAo" node="5fBz7OV8xLT" resolve="other" />
              </node>
              <node concept="3TrcHB" id="5p3IOnLqf3y" role="2OqNvi">
                <ref role="3TsBF5" to="tpck:h0TrG11" resolve="name" />
              </node>
            </node>
            <node concept="2OqwBi" id="5fBz7OV6Omn" role="37vLTJ">
              <node concept="37vLTw" id="5fBz7OV6NXV" role="2Oq$k0">
                <ref role="3cqZAo" node="5fBz7OV5EiT" resolve="streamTest" />
              </node>
              <node concept="3TrcHB" id="5p3IOnLmmYl" role="2OqNvi">
                <ref role="3TsBF5" to="tpck:h0TrG11" resolve="name" />
              </node>
            </node>
          </node>
        </node>
        <node concept="3clFbF" id="5fBz7OV7wzv" role="3cqZAp">
          <node concept="2OqwBi" id="5fBz7OV76Ra" role="3clFbG">
            <node concept="2OqwBi" id="5fBz7OV6Vwn" role="2Oq$k0">
              <node concept="37vLTw" id="5fBz7OV6SpF" role="2Oq$k0">
                <ref role="3cqZAo" node="5fBz7OV5EiT" resolve="streamTest" />
              </node>
              <node concept="3Tsc0h" id="5fBz7OV71OX" role="2OqNvi">
                <ref role="3TtcxE" to="tpee:fzclF7Y" resolve="parameter" />
              </node>
            </node>
            <node concept="X8dFx" id="5fBz7OV7agO" role="2OqNvi">
              <node concept="2OqwBi" id="5fBz7OV7jtW" role="25WWJ7">
                <node concept="37vLTw" id="5fBz7OV8H$w" role="2Oq$k0">
                  <ref role="3cqZAo" node="5fBz7OV8xLT" resolve="other" />
                </node>
                <node concept="3Tsc0h" id="5fBz7OV7obQ" role="2OqNvi">
                  <ref role="3TtcxE" to="tpee:fzclF7Y" resolve="parameter" />
                </node>
              </node>
            </node>
          </node>
        </node>
        <node concept="3clFbF" id="5fBz7OV7OEb" role="3cqZAp">
          <node concept="37vLTI" id="5fBz7OV7XPL" role="3clFbG">
            <node concept="2OqwBi" id="5fBz7OV7Yrj" role="37vLTx">
              <node concept="37vLTw" id="5fBz7OV8Lii" role="2Oq$k0">
                <ref role="3cqZAo" node="5fBz7OV8xLT" resolve="other" />
              </node>
              <node concept="3TrcHB" id="5fBz7OV7Zjf" role="2OqNvi">
                <ref role="3TsBF5" to="tpck:h0TrG11" resolve="name" />
              </node>
            </node>
            <node concept="2OqwBi" id="5fBz7OV7VCL" role="37vLTJ">
              <node concept="37vLTw" id="5fBz7OV7OE9" role="2Oq$k0">
                <ref role="3cqZAo" node="5fBz7OV5EiT" resolve="streamTest" />
              </node>
              <node concept="3TrcHB" id="5fBz7OV7Wuo" role="2OqNvi">
                <ref role="3TsBF5" to="tpck:h0TrG11" resolve="name" />
              </node>
            </node>
          </node>
        </node>
        <node concept="3clFbH" id="5fBz7OV7LM3" role="3cqZAp" />
        <node concept="3cpWs6" id="5fBz7OV9aCn" role="3cqZAp">
          <node concept="37vLTw" id="5fBz7OV9kbb" role="3cqZAk">
            <ref role="3cqZAo" node="5fBz7OV5EiT" resolve="streamTest" />
          </node>
        </node>
      </node>
      <node concept="37vLTG" id="5fBz7OV8xLT" role="3clF46">
        <property role="TrG5h" value="other" />
        <node concept="3Tqbb2" id="5fBz7OV8xLS" role="1tU5fm">
          <ref role="ehGHo" to="tpee:fzclF8t" resolve="InstanceMethodDeclaration" />
        </node>
      </node>
    </node>
    <node concept="13i0hz" id="5p3IOnLIRpk" role="13h7CS">
      <property role="TrG5h" value="getMethodNode" />
      <node concept="3Tm1VV" id="5p3IOnLIRpl" role="1B3o_S" />
      <node concept="3Tqbb2" id="5p3IOnLIRK4" role="3clF45">
        <ref role="ehGHo" to="tpee:fzclF8t" resolve="InstanceMethodDeclaration" />
      </node>
      <node concept="3clFbS" id="5p3IOnLIRpn" role="3clF47">
        <node concept="3cpWs8" id="5p3IOnLIRM1" role="3cqZAp">
          <node concept="3cpWsn" id="5p3IOnLIRM4" role="3cpWs9">
            <property role="TrG5h" value="declaration" />
            <node concept="3Tqbb2" id="5p3IOnLIRLZ" role="1tU5fm">
              <ref role="ehGHo" to="tpee:fzclF8t" resolve="InstanceMethodDeclaration" />
            </node>
            <node concept="2ShNRf" id="5p3IOnLIRN5" role="33vP2m">
              <node concept="3zrR0B" id="5p3IOnLIRN3" role="2ShVmc">
                <node concept="3Tqbb2" id="5p3IOnLIRN4" role="3zrR0E">
                  <ref role="ehGHo" to="tpee:fzclF8t" resolve="InstanceMethodDeclaration" />
                </node>
              </node>
            </node>
          </node>
        </node>
        <node concept="3clFbH" id="5p3IOnLIRNQ" role="3cqZAp" />
        <node concept="3clFbF" id="5p3IOnLIROT" role="3cqZAp">
          <node concept="2OqwBi" id="5p3IOnLIXEO" role="3clFbG">
            <node concept="2OqwBi" id="5p3IOnLISdQ" role="2Oq$k0">
              <node concept="37vLTw" id="5p3IOnLIROR" role="2Oq$k0">
                <ref role="3cqZAo" node="5p3IOnLIRM4" resolve="declaration" />
              </node>
              <node concept="3Tsc0h" id="5p3IOnLISUw" role="2OqNvi">
                <ref role="3TtcxE" to="tpee:hiAJF2X" resolve="annotation" />
              </node>
            </node>
            <node concept="X8dFx" id="5p3IOnLIZJJ" role="2OqNvi">
              <node concept="2OqwBi" id="5p3IOnLJ25A" role="25WWJ7">
                <node concept="13iPFW" id="5p3IOnLJ1ui" role="2Oq$k0" />
                <node concept="3Tsc0h" id="5p3IOnLJ5bu" role="2OqNvi">
                  <ref role="3TtcxE" to="tpee:hiAJF2X" resolve="annotation" />
                </node>
              </node>
            </node>
          </node>
        </node>
        <node concept="3clFbF" id="5p3IOnLJ9J4" role="3cqZAp">
          <node concept="37vLTI" id="5p3IOnLJd7C" role="3clFbG">
            <node concept="2OqwBi" id="5p3IOnLJdpm" role="37vLTx">
              <node concept="13iPFW" id="5p3IOnLJdaO" role="2Oq$k0" />
              <node concept="3TrEf2" id="5p3IOnLJefP" role="2OqNvi">
                <ref role="3Tt5mk" to="tpee:fzclF7Z" resolve="body" />
              </node>
            </node>
            <node concept="2OqwBi" id="5p3IOnLJbRQ" role="37vLTJ">
              <node concept="37vLTw" id="5p3IOnLJ9J2" role="2Oq$k0">
                <ref role="3cqZAo" node="5p3IOnLIRM4" resolve="declaration" />
              </node>
              <node concept="3TrEf2" id="5p3IOnLJc$w" role="2OqNvi">
                <ref role="3Tt5mk" to="tpee:fzclF7Z" resolve="body" />
              </node>
            </node>
          </node>
        </node>
        <node concept="3clFbF" id="5p3IOnLJgAH" role="3cqZAp">
          <node concept="37vLTI" id="5p3IOnLJj8Z" role="3clFbG">
            <node concept="2OqwBi" id="5p3IOnLJjE4" role="37vLTx">
              <node concept="13iPFW" id="5p3IOnLJjd9" role="2Oq$k0" />
              <node concept="3TrcHB" id="5p3IOnLJjTg" role="2OqNvi">
                <ref role="3TsBF5" to="tpee:h9EzhlX" resolve="isAbstract" />
              </node>
            </node>
            <node concept="2OqwBi" id="5p3IOnLJh9E" role="37vLTJ">
              <node concept="37vLTw" id="5p3IOnLJgAF" role="2Oq$k0">
                <ref role="3cqZAo" node="5p3IOnLIRM4" resolve="declaration" />
              </node>
              <node concept="3TrcHB" id="5p3IOnLJhQk" role="2OqNvi">
                <ref role="3TsBF5" to="tpee:h9EzhlX" resolve="isAbstract" />
              </node>
            </node>
          </node>
        </node>
        <node concept="3clFbF" id="5p3IOnLJkek" role="3cqZAp">
          <node concept="37vLTI" id="5p3IOnLJmH9" role="3clFbG">
            <node concept="2OqwBi" id="5p3IOnLJmWe" role="37vLTx">
              <node concept="13iPFW" id="5p3IOnLJmH$" role="2Oq$k0" />
              <node concept="3TrcHB" id="5p3IOnLJnNH" role="2OqNvi">
                <ref role="3TsBF5" to="tpee:hcDiZZi" resolve="isFinal" />
              </node>
            </node>
            <node concept="2OqwBi" id="5p3IOnLJly6" role="37vLTJ">
              <node concept="37vLTw" id="5p3IOnLJkei" role="2Oq$k0">
                <ref role="3cqZAo" node="5p3IOnLIRM4" resolve="declaration" />
              </node>
              <node concept="3TrcHB" id="5p3IOnLJmn7" role="2OqNvi">
                <ref role="3TsBF5" to="tpee:hcDiZZi" resolve="isFinal" />
              </node>
            </node>
          </node>
        </node>
        <node concept="3clFbF" id="5p3IOnLJpr0" role="3cqZAp">
          <node concept="37vLTI" id="5p3IOnLJtd7" role="3clFbG">
            <node concept="2OqwBi" id="5p3IOnLJtGg" role="37vLTx">
              <node concept="13iPFW" id="5p3IOnLJtdy" role="2Oq$k0" />
              <node concept="3TrcHB" id="5p3IOnLJu$2" role="2OqNvi">
                <ref role="3TsBF5" to="tpee:7fN3zRTn0HN" resolve="isNative" />
              </node>
            </node>
            <node concept="2OqwBi" id="5p3IOnLJs4i" role="37vLTJ">
              <node concept="37vLTw" id="5p3IOnLJpqY" role="2Oq$k0">
                <ref role="3cqZAo" node="5p3IOnLIRM4" resolve="declaration" />
              </node>
              <node concept="3TrcHB" id="5p3IOnLJsR2" role="2OqNvi">
                <ref role="3TsBF5" to="tpee:7fN3zRTn0HN" resolve="isNative" />
              </node>
            </node>
          </node>
        </node>
        <node concept="3clFbF" id="5p3IOnLJwWp" role="3cqZAp">
          <node concept="37vLTI" id="5p3IOnLJAab" role="3clFbG">
            <node concept="2OqwBi" id="5p3IOnLJABn" role="37vLTx">
              <node concept="13iPFW" id="5p3IOnLJAaA" role="2Oq$k0" />
              <node concept="3TrcHB" id="5p3IOnLJAQz" role="2OqNvi">
                <ref role="3TsBF5" to="tpee:3HnrdCzoiLU" resolve="isSynchronized" />
              </node>
            </node>
            <node concept="2OqwBi" id="5p3IOnLJ$iJ" role="37vLTJ">
              <node concept="37vLTw" id="5p3IOnLJwWn" role="2Oq$k0">
                <ref role="3cqZAo" node="5p3IOnLIRM4" resolve="declaration" />
              </node>
              <node concept="3TrcHB" id="5p3IOnLJ$ZT" role="2OqNvi">
                <ref role="3TsBF5" to="tpee:3HnrdCzoiLU" resolve="isSynchronized" />
              </node>
            </node>
          </node>
        </node>
        <node concept="3clFbF" id="5p3IOnLJFPx" role="3cqZAp">
          <node concept="2OqwBi" id="5p3IOnLJKGs" role="3clFbG">
            <node concept="2OqwBi" id="5p3IOnLJIE6" role="2Oq$k0">
              <node concept="37vLTw" id="5p3IOnLJFPv" role="2Oq$k0">
                <ref role="3cqZAo" node="5p3IOnLIRM4" resolve="declaration" />
              </node>
              <node concept="3Tsc0h" id="5p3IOnLJJmK" role="2OqNvi">
                <ref role="3TtcxE" to="tpee:20YUQaJkyYL" resolve="modifiers" />
              </node>
            </node>
            <node concept="X8dFx" id="5p3IOnLJMhY" role="2OqNvi">
              <node concept="2OqwBi" id="5p3IOnLJPik" role="25WWJ7">
                <node concept="13iPFW" id="5p3IOnLJNzs" role="2Oq$k0" />
                <node concept="3Tsc0h" id="5p3IOnLJRRT" role="2OqNvi">
                  <ref role="3TtcxE" to="tpee:20YUQaJkyYL" resolve="modifiers" />
                </node>
              </node>
            </node>
          </node>
        </node>
        <node concept="3clFbF" id="5p3IOnLJDdd" role="3cqZAp">
          <node concept="37vLTI" id="5p3IOnLJF2W" role="3clFbG">
            <node concept="2OqwBi" id="5p3IOnLJFr1" role="37vLTx">
              <node concept="13iPFW" id="5p3IOnLJF3n" role="2Oq$k0" />
              <node concept="3TrcHB" id="5p3IOnLJFAl" role="2OqNvi">
                <ref role="3TsBF5" to="tpck:h0TrG11" resolve="name" />
              </node>
            </node>
            <node concept="2OqwBi" id="5p3IOnLJDIM" role="37vLTJ">
              <node concept="37vLTw" id="5p3IOnLJDdb" role="2Oq$k0">
                <ref role="3cqZAo" node="5p3IOnLIRM4" resolve="declaration" />
              </node>
              <node concept="3TrcHB" id="5p3IOnLJEBo" role="2OqNvi">
                <ref role="3TsBF5" to="tpck:h0TrG11" resolve="name" />
              </node>
            </node>
          </node>
        </node>
        <node concept="3clFbF" id="5p3IOnLK68V" role="3cqZAp">
          <node concept="2OqwBi" id="5p3IOnLKhtg" role="3clFbG">
            <node concept="2OqwBi" id="5p3IOnLKbSl" role="2Oq$k0">
              <node concept="37vLTw" id="5p3IOnLKbvx" role="2Oq$k0">
                <ref role="3cqZAo" node="5p3IOnLIRM4" resolve="declaration" />
              </node>
              <node concept="3Tsc0h" id="5p3IOnLKc$Z" role="2OqNvi">
                <ref role="3TtcxE" to="tpee:fzclF7Y" resolve="parameter" />
              </node>
            </node>
            <node concept="X8dFx" id="5p3IOnLKl8p" role="2OqNvi">
              <node concept="2OqwBi" id="5p3IOnLKmbg" role="25WWJ7">
                <node concept="13iPFW" id="5p3IOnLKly3" role="2Oq$k0" />
                <node concept="3Tsc0h" id="5p3IOnLKtyg" role="2OqNvi">
                  <ref role="3TtcxE" to="tpee:fzclF7Y" resolve="parameter" />
                </node>
              </node>
            </node>
          </node>
        </node>
        <node concept="3clFbF" id="5p3IOnLKwa9" role="3cqZAp">
          <node concept="37vLTI" id="5p3IOnLKFgk" role="3clFbG">
            <node concept="2OqwBi" id="5p3IOnLKFCp" role="37vLTx">
              <node concept="13iPFW" id="5p3IOnLKFgJ" role="2Oq$k0" />
              <node concept="3TrcHB" id="5p3IOnLKFRW" role="2OqNvi">
                <ref role="3TsBF5" to="tpck:hqLvdgl" resolve="resolveInfo" />
              </node>
            </node>
            <node concept="2OqwBi" id="5p3IOnLKDeC" role="37vLTJ">
              <node concept="37vLTw" id="5p3IOnLKwa7" role="2Oq$k0">
                <ref role="3cqZAo" node="5p3IOnLIRM4" resolve="declaration" />
              </node>
              <node concept="3TrcHB" id="5p3IOnLKE24" role="2OqNvi">
                <ref role="3TsBF5" to="tpck:hqLvdgl" resolve="resolveInfo" />
              </node>
            </node>
          </node>
        </node>
        <node concept="3clFbF" id="5p3IOnLKM0v" role="3cqZAp">
          <node concept="37vLTI" id="5p3IOnLKWpH" role="3clFbG">
            <node concept="2OqwBi" id="5p3IOnLKWCG" role="37vLTx">
              <node concept="13iPFW" id="5p3IOnLKWqa" role="2Oq$k0" />
              <node concept="3TrEf2" id="5p3IOnLKXFd" role="2OqNvi">
                <ref role="3Tt5mk" to="tpee:fzclF7X" resolve="returnType" />
              </node>
            </node>
            <node concept="2OqwBi" id="5p3IOnLKVgQ" role="37vLTJ">
              <node concept="37vLTw" id="5p3IOnLKM0t" role="2Oq$k0">
                <ref role="3cqZAo" node="5p3IOnLIRM4" resolve="declaration" />
              </node>
              <node concept="3TrEf2" id="5p3IOnLKWgH" role="2OqNvi">
                <ref role="3Tt5mk" to="tpee:fzclF7X" resolve="returnType" />
              </node>
            </node>
          </node>
        </node>
        <node concept="3clFbF" id="5p3IOnLL58w" role="3cqZAp">
          <node concept="2OqwBi" id="5p3IOnLLg$N" role="3clFbG">
            <node concept="2OqwBi" id="5p3IOnLLduh" role="2Oq$k0">
              <node concept="37vLTw" id="5p3IOnLL58u" role="2Oq$k0">
                <ref role="3cqZAo" node="5p3IOnLIRM4" resolve="declaration" />
              </node>
              <node concept="3Tsc0h" id="5p3IOnLLf7S" role="2OqNvi">
                <ref role="3TtcxE" to="tpck:4uZwTti3__2" resolve="smodelAttribute" />
              </node>
            </node>
            <node concept="X8dFx" id="5p3IOnLLial" role="2OqNvi">
              <node concept="2OqwBi" id="5p3IOnLLk$1" role="25WWJ7">
                <node concept="13iPFW" id="5p3IOnLLiXv" role="2Oq$k0" />
                <node concept="3Tsc0h" id="5p3IOnLLnJU" role="2OqNvi">
                  <ref role="3TtcxE" to="tpck:4uZwTti3__2" resolve="smodelAttribute" />
                </node>
              </node>
            </node>
          </node>
        </node>
        <node concept="3clFbF" id="5p3IOnLLunf" role="3cqZAp">
          <node concept="2OqwBi" id="5p3IOnLLz0L" role="3clFbG">
            <node concept="2OqwBi" id="5p3IOnLLwr0" role="2Oq$k0">
              <node concept="37vLTw" id="5p3IOnLLund" role="2Oq$k0">
                <ref role="3cqZAo" node="5p3IOnLIRM4" resolve="declaration" />
              </node>
              <node concept="3Tsc0h" id="5p3IOnLLxdB" role="2OqNvi">
                <ref role="3TtcxE" to="tpee:gWSfm_9" resolve="throwsItem" />
              </node>
            </node>
            <node concept="X8dFx" id="5p3IOnLL_9$" role="2OqNvi">
              <node concept="2OqwBi" id="5p3IOnLLC9H" role="25WWJ7">
                <node concept="13iPFW" id="5p3IOnLLBxu" role="2Oq$k0" />
                <node concept="3Tsc0h" id="5p3IOnLLDaE" role="2OqNvi">
                  <ref role="3TtcxE" to="tpee:gWSfm_9" resolve="throwsItem" />
                </node>
              </node>
            </node>
          </node>
        </node>
        <node concept="3clFbF" id="5p3IOnLLIsF" role="3cqZAp">
          <node concept="2OqwBi" id="5p3IOnLLTbx" role="3clFbG">
            <node concept="2OqwBi" id="5p3IOnLLM54" role="2Oq$k0">
              <node concept="37vLTw" id="5p3IOnLLIsD" role="2Oq$k0">
                <ref role="3cqZAo" node="5p3IOnLIRM4" resolve="declaration" />
              </node>
              <node concept="3Tsc0h" id="5p3IOnLLMLI" role="2OqNvi">
                <ref role="3TtcxE" to="tpee:g96eVAe" resolve="typeVariableDeclaration" />
              </node>
            </node>
            <node concept="X8dFx" id="5p3IOnLLVqn" role="2OqNvi">
              <node concept="2OqwBi" id="5p3IOnLM0bC" role="25WWJ7">
                <node concept="13iPFW" id="5p3IOnLLXYh" role="2Oq$k0" />
                <node concept="3Tsc0h" id="5p3IOnLM2T9" role="2OqNvi">
                  <ref role="3TtcxE" to="tpee:g96eVAe" resolve="typeVariableDeclaration" />
                </node>
              </node>
            </node>
          </node>
        </node>
        <node concept="3clFbF" id="5p3IOnLMgyQ" role="3cqZAp">
          <node concept="37vLTI" id="5p3IOnLMuL$" role="3clFbG">
            <node concept="2OqwBi" id="5p3IOnLMv9D" role="37vLTx">
              <node concept="13iPFW" id="5p3IOnLMuLZ" role="2Oq$k0" />
              <node concept="3TrcHB" id="5p3IOnLMvpv" role="2OqNvi">
                <ref role="3TsBF5" to="tpck:hnGE5uv" resolve="virtualPackage" />
              </node>
            </node>
            <node concept="2OqwBi" id="5p3IOnLMrwr" role="37vLTJ">
              <node concept="37vLTw" id="5p3IOnLMgyO" role="2Oq$k0">
                <ref role="3cqZAo" node="5p3IOnLIRM4" resolve="declaration" />
              </node>
              <node concept="3TrcHB" id="5p3IOnLMsJ0" role="2OqNvi">
                <ref role="3TsBF5" to="tpck:hnGE5uv" resolve="virtualPackage" />
              </node>
            </node>
          </node>
        </node>
        <node concept="3clFbF" id="5p3IOnLMLdI" role="3cqZAp">
          <node concept="37vLTI" id="5p3IOnLMWqP" role="3clFbG">
            <node concept="2OqwBi" id="5p3IOnLMWU2" role="37vLTx">
              <node concept="13iPFW" id="5p3IOnLMWri" role="2Oq$k0" />
              <node concept="3TrEf2" id="5p3IOnLMXJV" role="2OqNvi">
                <ref role="3Tt5mk" to="tpee:h9B3oxE" resolve="visibility" />
              </node>
            </node>
            <node concept="2OqwBi" id="5p3IOnLMVlZ" role="37vLTJ">
              <node concept="37vLTw" id="5p3IOnLMLdG" role="2Oq$k0">
                <ref role="3cqZAo" node="5p3IOnLIRM4" resolve="declaration" />
              </node>
              <node concept="3TrEf2" id="5p3IOnLMWhq" role="2OqNvi">
                <ref role="3Tt5mk" to="tpee:h9B3oxE" resolve="visibility" />
              </node>
            </node>
          </node>
        </node>
        <node concept="3clFbH" id="5p3IOnLIROr" role="3cqZAp" />
        <node concept="3cpWs6" id="5p3IOnLIRLr" role="3cqZAp">
          <node concept="37vLTw" id="5p3IOnLIRNz" role="3cqZAk">
            <ref role="3cqZAo" node="5p3IOnLIRM4" resolve="declaration" />
          </node>
        </node>
      </node>
    </node>
    <node concept="13hLZK" id="5fBz7OV28TJ" role="13h7CW">
      <node concept="3clFbS" id="5fBz7OV28TK" role="2VODD2" />
    </node>
    <node concept="13i0hz" id="4vp2seWdO4g" role="13h7CS">
      <property role="TrG5h" value="getScope" />
      <ref role="13i0hy" to="tpcu:52_Geb4QDV$" resolve="getScope" />
      <node concept="3Tm1VV" id="4vp2seWdO4h" role="1B3o_S" />
      <node concept="3clFbS" id="4vp2seWdO4q" role="3clF47">
        <node concept="3clFbJ" id="4vp2seWdXpN" role="3cqZAp">
          <node concept="3clFbS" id="4vp2seWdXpP" role="3clFbx">
            <node concept="3cpWs6" id="4vp2seWiwep" role="3cqZAp">
              <node concept="2ShNRf" id="4vp2seWiweu" role="3cqZAk">
                <node concept="1pGfFk" id="4vp2seWiwVB" role="2ShVmc">
                  <ref role="37wK5l" to="1piv:4vp2seWi1Yq" resolve="NamedListScope" />
                  <node concept="2OqwBi" id="4vp2seWiAww" role="37wK5m">
                    <node concept="BsUDl" id="4vp2seWjJkq" role="2Oq$k0">
                      <ref role="37wK5l" node="4vp2seWjsbp" resolve="statements" />
                    </node>
                    <node concept="v3k3i" id="4vp2seWiCss" role="2OqNvi">
                      <node concept="chp4Y" id="4vp2seWiCyI" role="v3oSu">
                        <ref role="cht4Q" to="qyjc:5T7UbTDhmXB" resolve="Pipeline" />
                      </node>
                    </node>
                  </node>
                </node>
              </node>
            </node>
          </node>
          <node concept="2OqwBi" id="4vp2seWdXGD" role="3clFbw">
            <node concept="37vLTw" id="4vp2seWdXtY" role="2Oq$k0">
              <ref role="3cqZAo" node="4vp2seWdO4r" resolve="kind" />
            </node>
            <node concept="3O6GUB" id="4vp2seWdXTg" role="2OqNvi">
              <node concept="chp4Y" id="4vp2seWdXWv" role="3QVz_e">
                <ref role="cht4Q" to="qyjc:5T7UbTDhmXB" resolve="Pipeline" />
              </node>
            </node>
          </node>
        </node>
        <node concept="3clFbJ" id="6kk4K$6wXOw" role="3cqZAp">
          <node concept="3clFbS" id="6kk4K$6wXOy" role="3clFbx">
            <node concept="3cpWs6" id="4vp2seWiDss" role="3cqZAp">
              <node concept="2ShNRf" id="4vp2seWiDuR" role="3cqZAk">
                <node concept="1pGfFk" id="4vp2seWiDCT" role="2ShVmc">
                  <ref role="37wK5l" to="1piv:4vp2seWi1Yq" resolve="NamedListScope" />
                  <node concept="2OqwBi" id="4vp2seWiHU8" role="37wK5m">
                    <node concept="BsUDl" id="4vp2seWjJ9C" role="2Oq$k0">
                      <ref role="37wK5l" node="4vp2seWjsbp" resolve="statements" />
                    </node>
                    <node concept="v3k3i" id="4vp2seWiKuc" role="2OqNvi">
                      <node concept="chp4Y" id="4vp2seWiKyk" role="v3oSu">
                        <ref role="cht4Q" to="qyjc:1CpVIWKKpwu" resolve="EventSink" />
                      </node>
                    </node>
                  </node>
                </node>
              </node>
            </node>
          </node>
          <node concept="2OqwBi" id="4vp2seWgh3r" role="3clFbw">
            <node concept="37vLTw" id="4vp2seWggVc" role="2Oq$k0">
              <ref role="3cqZAo" node="4vp2seWdO4r" resolve="kind" />
            </node>
            <node concept="3O6GUB" id="4vp2seWghcj" role="2OqNvi">
              <node concept="chp4Y" id="4vp2seWghf$" role="3QVz_e">
                <ref role="cht4Q" to="qyjc:1CpVIWKKpwu" resolve="EventSink" />
              </node>
            </node>
          </node>
        </node>
        <node concept="3clFbJ" id="6kk4K$6wYwK" role="3cqZAp">
          <node concept="3clFbS" id="6kk4K$6wYwM" role="3clFbx">
            <node concept="3cpWs6" id="4vp2seWiLcJ" role="3cqZAp">
              <node concept="2ShNRf" id="4vp2seWiLcO" role="3cqZAk">
                <node concept="1pGfFk" id="4vp2seWiLmd" role="2ShVmc">
                  <ref role="37wK5l" to="1piv:4vp2seWi1Yq" resolve="NamedListScope" />
                  <node concept="2OqwBi" id="4vp2seWiQa3" role="37wK5m">
                    <node concept="v3k3i" id="4vp2seWiSMu" role="2OqNvi">
                      <node concept="chp4Y" id="4vp2seWjs37" role="v3oSu">
                        <ref role="cht4Q" to="qyjc:1CpVIWKKpfT" resolve="EventSource" />
                      </node>
                    </node>
                    <node concept="BsUDl" id="4vp2seWjHHW" role="2Oq$k0">
                      <ref role="37wK5l" node="4vp2seWjsbp" resolve="statements" />
                    </node>
                  </node>
                </node>
              </node>
            </node>
          </node>
          <node concept="2OqwBi" id="4vp2seWiL7o" role="3clFbw">
            <node concept="37vLTw" id="4vp2seWiL1b" role="2Oq$k0">
              <ref role="3cqZAo" node="4vp2seWdO4r" resolve="kind" />
            </node>
            <node concept="3O6GUB" id="4vp2seWiLbu" role="2OqNvi">
              <node concept="chp4Y" id="4vp2seWiLc1" role="3QVz_e">
                <ref role="cht4Q" to="qyjc:1CpVIWKKpfT" resolve="EventSource" />
              </node>
            </node>
          </node>
        </node>
        <node concept="3clFbJ" id="6kk4K$6wZlF" role="3cqZAp">
          <node concept="3clFbS" id="6kk4K$6wZlH" role="3clFbx">
            <node concept="3cpWs6" id="4vp2seWjELR" role="3cqZAp">
              <node concept="2ShNRf" id="4vp2seWjENF" role="3cqZAk">
                <node concept="1pGfFk" id="4vp2seWjFjv" role="2ShVmc">
                  <ref role="37wK5l" to="1piv:4vp2seWi1Yq" resolve="NamedListScope" />
                  <node concept="2OqwBi" id="4vp2seWjFHm" role="37wK5m">
                    <node concept="v3k3i" id="4vp2seWjFVO" role="2OqNvi">
                      <node concept="chp4Y" id="4vp2seWjGlR" role="v3oSu">
                        <ref role="cht4Q" to="qyjc:4o2stJ22OSe" resolve="Window" />
                      </node>
                    </node>
                    <node concept="BsUDl" id="4vp2seWjIuw" role="2Oq$k0">
                      <ref role="37wK5l" node="4vp2seWjsbp" resolve="statements" />
                    </node>
                  </node>
                </node>
              </node>
            </node>
          </node>
          <node concept="2OqwBi" id="4vp2seWjEGt" role="3clFbw">
            <node concept="37vLTw" id="4vp2seWjEAe" role="2Oq$k0">
              <ref role="3cqZAo" node="4vp2seWdO4r" resolve="kind" />
            </node>
            <node concept="3O6GUB" id="4vp2seWjEK_" role="2OqNvi">
              <node concept="chp4Y" id="4vp2seWjELa" role="3QVz_e">
                <ref role="cht4Q" to="qyjc:4o2stJ22OSe" resolve="Window" />
              </node>
            </node>
          </node>
        </node>
        <node concept="3clFbF" id="4vp2seWdO4_" role="3cqZAp">
          <node concept="2OqwBi" id="4vp2seWdO4y" role="3clFbG">
            <node concept="13iAh5" id="4vp2seWdO4z" role="2Oq$k0">
              <ref role="3eA5LN" to="tpck:3fifI_xCcJN" resolve="ScopeProvider" />
            </node>
            <node concept="2qgKlT" id="4vp2seWdO4$" role="2OqNvi">
              <ref role="37wK5l" to="tpcu:52_Geb4QDV$" resolve="getScope" />
              <node concept="37vLTw" id="4vp2seWdO4w" role="37wK5m">
                <ref role="3cqZAo" node="4vp2seWdO4r" resolve="kind" />
              </node>
              <node concept="37vLTw" id="4vp2seWdO4x" role="37wK5m">
                <ref role="3cqZAo" node="4vp2seWdO4t" resolve="child" />
              </node>
            </node>
          </node>
        </node>
      </node>
      <node concept="37vLTG" id="4vp2seWdO4r" role="3clF46">
        <property role="TrG5h" value="kind" />
        <node concept="3bZ5Sz" id="4vp2seWdO4s" role="1tU5fm" />
      </node>
      <node concept="37vLTG" id="4vp2seWdO4t" role="3clF46">
        <property role="TrG5h" value="child" />
        <node concept="3Tqbb2" id="4vp2seWdO4u" role="1tU5fm" />
      </node>
      <node concept="3uibUv" id="4vp2seWdO4v" role="3clF45">
        <ref role="3uigEE" to="o8zo:3fifI_xCtN$" resolve="Scope" />
      </node>
    </node>
    <node concept="13i0hz" id="4vp2seWjsbp" role="13h7CS">
      <property role="TrG5h" value="statements" />
      <node concept="3Tm1VV" id="4vp2seWjsbq" role="1B3o_S" />
      <node concept="A3Dl8" id="4vp2seWj_KA" role="3clF45">
        <node concept="3Tqbb2" id="4vp2seWj_KN" role="A3Ik2">
          <ref role="ehGHo" to="tpee:fzclF8l" resolve="Statement" />
        </node>
      </node>
      <node concept="3clFbS" id="4vp2seWjsbs" role="3clF47">
        <node concept="3cpWs6" id="4vp2seWj_Lm" role="3cqZAp">
          <node concept="2OqwBi" id="4vp2seWjBjy" role="3cqZAk">
            <node concept="2OqwBi" id="4vp2seWjAg_" role="2Oq$k0">
              <node concept="13iPFW" id="4vp2seWj_LI" role="2Oq$k0" />
              <node concept="3TrEf2" id="4vp2seWjAZd" role="2OqNvi">
                <ref role="3Tt5mk" to="tpee:fzclF7Z" resolve="body" />
              </node>
            </node>
            <node concept="3Tsc0h" id="4vp2seWjBAI" role="2OqNvi">
              <ref role="3TtcxE" to="tpee:fzcqZ_x" resolve="statement" />
            </node>
          </node>
        </node>
      </node>
    </node>
  </node>
  <node concept="13h7C7" id="4vp2seWdy2R">
    <ref role="13h7C2" to="qyjc:6M3wHT4XYt" resolve="StreamTestCase" />
    <node concept="13hLZK" id="4vp2seWdy2S" role="13h7CW">
      <node concept="3clFbS" id="4vp2seWdy2T" role="2VODD2">
        <node concept="3clFbF" id="67vTL6XqblE" role="3cqZAp">
          <node concept="37vLTI" id="67vTL6XqcvL" role="3clFbG">
            <node concept="2ShNRf" id="67vTL6XqcyY" role="37vLTx">
              <node concept="3zrR0B" id="67vTL6XqcyW" role="2ShVmc">
                <node concept="3Tqbb2" id="67vTL6XqcyX" role="3zrR0E">
                  <ref role="ehGHo" to="qyjc:5$bixu1eN8W" resolve="EngineConfig" />
                </node>
              </node>
            </node>
            <node concept="2OqwBi" id="67vTL6XqbEw" role="37vLTJ">
              <node concept="13iPFW" id="67vTL6XqblD" role="2Oq$k0" />
              <node concept="3TrEf2" id="67vTL6Xqcfb" role="2OqNvi">
                <ref role="3Tt5mk" to="qyjc:6M3wHT4XYA" resolve="engineConfig" />
              </node>
            </node>
          </node>
        </node>
        <node concept="3clFbF" id="67vTL6Xqc$7" role="3cqZAp">
          <node concept="37vLTI" id="67vTL6Xqep2" role="3clFbG">
            <node concept="Xl_RD" id="67vTL6XqewG" role="37vLTx">
              <property role="Xl_RC" value="generated_testcase" />
            </node>
            <node concept="2OqwBi" id="67vTL6XqdLe" role="37vLTJ">
              <node concept="2OqwBi" id="67vTL6XqcXG" role="2Oq$k0">
                <node concept="13iPFW" id="67vTL6Xqc$5" role="2Oq$k0" />
                <node concept="3TrEf2" id="67vTL6Xqdyl" role="2OqNvi">
                  <ref role="3Tt5mk" to="qyjc:6M3wHT4XYA" resolve="engineConfig" />
                </node>
              </node>
              <node concept="3TrcHB" id="67vTL6Xqe47" role="2OqNvi">
                <ref role="3TsBF5" to="qyjc:67vTL6Xq54a" resolve="applicationName" />
              </node>
            </node>
          </node>
        </node>
        <node concept="3clFbF" id="67vTL6XqeA8" role="3cqZAp">
          <node concept="37vLTI" id="67vTL6Xqgrs" role="3clFbG">
            <node concept="Xl_RD" id="67vTL6Xqgwq" role="37vLTx">
              <property role="Xl_RC" value="localhost:9371" />
            </node>
            <node concept="2OqwBi" id="67vTL6XqfQg" role="37vLTJ">
              <node concept="2OqwBi" id="67vTL6XqeVF" role="2Oq$k0">
                <node concept="13iPFW" id="67vTL6XqeA6" role="2Oq$k0" />
                <node concept="3TrEf2" id="67vTL6XqfBn" role="2OqNvi">
                  <ref role="3Tt5mk" to="qyjc:6M3wHT4XYA" resolve="engineConfig" />
                </node>
              </node>
              <node concept="3TrcHB" id="67vTL6Xqg99" role="2OqNvi">
                <ref role="3TsBF5" to="qyjc:67vTL6Xq54c" resolve="bootstrapServer" />
              </node>
            </node>
          </node>
        </node>
        <node concept="3clFbF" id="67vTL6Xt6cv" role="3cqZAp">
          <node concept="37vLTI" id="67vTL6Xt87_" role="3clFbG">
            <node concept="Xl_RD" id="67vTL6Xt8iS" role="37vLTx">
              <property role="Xl_RC" value="engineConfig" />
            </node>
            <node concept="2OqwBi" id="67vTL6Xt7oF" role="37vLTJ">
              <node concept="2OqwBi" id="67vTL6Xt6D4" role="2Oq$k0">
                <node concept="13iPFW" id="67vTL6Xt6ct" role="2Oq$k0" />
                <node concept="3TrEf2" id="67vTL6Xt7d_" role="2OqNvi">
                  <ref role="3Tt5mk" to="qyjc:6M3wHT4XYA" resolve="engineConfig" />
                </node>
              </node>
              <node concept="3TrcHB" id="67vTL6Xt7Dq" role="2OqNvi">
                <ref role="3TsBF5" to="tpck:h0TrG11" resolve="name" />
              </node>
            </node>
          </node>
        </node>
        <node concept="3clFbF" id="67vTL6XyhCN" role="3cqZAp">
          <node concept="37vLTI" id="67vTL6XyjOY" role="3clFbG">
            <node concept="2ShNRf" id="67vTL6XyjRA" role="37vLTx">
              <node concept="3zrR0B" id="67vTL6XyjR$" role="2ShVmc">
                <node concept="3Tqbb2" id="67vTL6XyjR_" role="3zrR0E">
                  <ref role="ehGHo" to="qyjc:67vTL6Xyhcb" resolve="SparkSession" />
                </node>
              </node>
            </node>
            <node concept="2OqwBi" id="67vTL6XyjqH" role="37vLTJ">
              <node concept="2OqwBi" id="67vTL6XyhZy" role="2Oq$k0">
                <node concept="13iPFW" id="67vTL6XyhCL" role="2Oq$k0" />
                <node concept="3TrEf2" id="67vTL6Xyjdh" role="2OqNvi">
                  <ref role="3Tt5mk" to="qyjc:6M3wHT4XYA" resolve="engineConfig" />
                </node>
              </node>
              <node concept="3TrEf2" id="67vTL6XyjAQ" role="2OqNvi">
                <ref role="3Tt5mk" to="qyjc:67vTL6Xyhc9" resolve="sparkSession" />
              </node>
            </node>
          </node>
        </node>
        <node concept="3clFbF" id="67vTL6Xyk17" role="3cqZAp">
          <node concept="37vLTI" id="67vTL6Xym2d" role="3clFbG">
            <node concept="Xl_RD" id="67vTL6Xym37" role="37vLTx">
              <property role="Xl_RC" value="DefaultSparkSession" />
            </node>
            <node concept="2OqwBi" id="67vTL6XylyU" role="37vLTJ">
              <node concept="2OqwBi" id="67vTL6Xyl89" role="2Oq$k0">
                <node concept="2OqwBi" id="67vTL6Xykoo" role="2Oq$k0">
                  <node concept="13iPFW" id="67vTL6Xyk15" role="2Oq$k0" />
                  <node concept="3TrEf2" id="67vTL6XykX3" role="2OqNvi">
                    <ref role="3Tt5mk" to="qyjc:6M3wHT4XYA" resolve="engineConfig" />
                  </node>
                </node>
                <node concept="3TrEf2" id="67vTL6Xylk6" role="2OqNvi">
                  <ref role="3Tt5mk" to="qyjc:67vTL6Xyhc9" resolve="sparkSession" />
                </node>
              </node>
              <node concept="3TrcHB" id="67vTL6XylJQ" role="2OqNvi">
                <ref role="3TsBF5" to="tpck:h0TrG11" resolve="name" />
              </node>
            </node>
          </node>
        </node>
      </node>
    </node>
    <node concept="13i0hz" id="4vp2seWdy32" role="13h7CS">
      <property role="TrG5h" value="getScope" />
      <ref role="13i0hy" to="tpcu:52_Geb4QDV$" resolve="getScope" />
      <node concept="3Tm1VV" id="4vp2seWdy33" role="1B3o_S" />
      <node concept="3clFbS" id="4vp2seWdy3M" role="3clF47">
        <node concept="3clFbJ" id="4vp2seWf7Xj" role="3cqZAp">
          <node concept="3clFbS" id="4vp2seWf7Xl" role="3clFbx">
            <node concept="3cpWs6" id="4vp2seWfbFj" role="3cqZAp">
              <node concept="2YIFZM" id="4vp2seWfe2P" role="3cqZAk">
                <ref role="37wK5l" to="o8zo:6t3ylNOzI9Y" resolve="forNamedElements" />
                <ref role="1Pybhc" to="o8zo:7ipADkTevLm" resolve="SimpleRoleScope" />
                <node concept="13iPFW" id="4vp2seWfe3U" role="37wK5m" />
                <node concept="359W_D" id="4vp2seWfefN" role="37wK5m">
                  <ref role="359W_E" to="qyjc:6M3wHT4XYt" resolve="StreamTestCase" />
                  <ref role="359W_F" to="qyjc:6M3wHT4XYA" resolve="engineConfig" />
                </node>
              </node>
            </node>
          </node>
          <node concept="2OqwBi" id="4vp2seWf8fI" role="3clFbw">
            <node concept="37vLTw" id="4vp2seWf7Y8" role="2Oq$k0">
              <ref role="3cqZAo" node="4vp2seWdy3N" resolve="kind" />
            </node>
            <node concept="3O6GUB" id="4vp2seWf8xU" role="2OqNvi">
              <node concept="chp4Y" id="4vp2seWf8_9" role="3QVz_e">
                <ref role="cht4Q" to="qyjc:5$bixu1eN8W" resolve="EngineConfig" />
              </node>
            </node>
          </node>
        </node>
        <node concept="3clFbJ" id="67vTL6Xym_f" role="3cqZAp">
          <node concept="3clFbS" id="67vTL6Xym_h" role="3clFbx">
            <node concept="3cpWs6" id="67vTL6XyngN" role="3cqZAp">
              <node concept="2YIFZM" id="67vTL6Xynvu" role="3cqZAk">
                <ref role="37wK5l" to="o8zo:6t3ylNOzI9Y" resolve="forNamedElements" />
                <ref role="1Pybhc" to="o8zo:7ipADkTevLm" resolve="SimpleRoleScope" />
                <node concept="2OqwBi" id="67vTL6XypTu" role="37wK5m">
                  <node concept="13iPFW" id="67vTL6XynxD" role="2Oq$k0" />
                  <node concept="3TrEf2" id="67vTL6Xyqxg" role="2OqNvi">
                    <ref role="3Tt5mk" to="qyjc:6M3wHT4XYA" resolve="engineConfig" />
                  </node>
                </node>
                <node concept="359W_D" id="67vTL6XyrL9" role="37wK5m">
                  <ref role="359W_E" to="qyjc:5$bixu1eN8W" resolve="EngineConfig" />
                  <ref role="359W_F" to="qyjc:67vTL6Xyhc9" resolve="sparkSession" />
                </node>
              </node>
            </node>
          </node>
          <node concept="2OqwBi" id="67vTL6XymPP" role="3clFbw">
            <node concept="37vLTw" id="67vTL6XymAX" role="2Oq$k0">
              <ref role="3cqZAo" node="4vp2seWdy3N" resolve="kind" />
            </node>
            <node concept="3O6GUB" id="67vTL6Xynby" role="2OqNvi">
              <node concept="chp4Y" id="67vTL6Xynfy" role="3QVz_e">
                <ref role="cht4Q" to="qyjc:67vTL6Xyhcb" resolve="SparkSession" />
              </node>
            </node>
          </node>
        </node>
        <node concept="3clFbH" id="4vp2seWf7Ol" role="3cqZAp" />
        <node concept="3clFbF" id="4vp2seWdy3X" role="3cqZAp">
          <node concept="2OqwBi" id="4vp2seWdy3U" role="3clFbG">
            <node concept="13iAh5" id="4vp2seWdy3V" role="2Oq$k0" />
            <node concept="2qgKlT" id="4vp2seWdy3W" role="2OqNvi">
              <ref role="37wK5l" to="tpcu:52_Geb4QDV$" resolve="getScope" />
              <node concept="37vLTw" id="4vp2seWdy3S" role="37wK5m">
                <ref role="3cqZAo" node="4vp2seWdy3N" resolve="kind" />
              </node>
              <node concept="37vLTw" id="4vp2seWdy3T" role="37wK5m">
                <ref role="3cqZAo" node="4vp2seWdy3P" resolve="child" />
              </node>
            </node>
          </node>
        </node>
      </node>
      <node concept="37vLTG" id="4vp2seWdy3N" role="3clF46">
        <property role="TrG5h" value="kind" />
        <node concept="3bZ5Sz" id="4vp2seWdy3O" role="1tU5fm" />
      </node>
      <node concept="37vLTG" id="4vp2seWdy3P" role="3clF46">
        <property role="TrG5h" value="child" />
        <node concept="3Tqbb2" id="4vp2seWdy3Q" role="1tU5fm" />
      </node>
      <node concept="3uibUv" id="4vp2seWdy3R" role="3clF45">
        <ref role="3uigEE" to="o8zo:3fifI_xCtN$" resolve="Scope" />
      </node>
    </node>
  </node>
  <node concept="13h7C7" id="67vTL6XtODV">
    <property role="3GE5qa" value="EngineConfig" />
    <ref role="13h7C2" to="qyjc:2XsxYmZ1fp5" resolve="EngineConfigRef" />
    <node concept="13i0hz" id="67vTL6XtOE6" role="13h7CS">
      <property role="TrG5h" value="getApplicationId" />
      <node concept="3Tm1VV" id="67vTL6XtOE7" role="1B3o_S" />
      <node concept="17QB3L" id="67vTL6XtOEm" role="3clF45" />
      <node concept="3clFbS" id="67vTL6XtOE9" role="3clF47">
        <node concept="3cpWs6" id="67vTL6XtOEL" role="3cqZAp">
          <node concept="2OqwBi" id="67vTL6XtPf7" role="3cqZAk">
            <node concept="2OqwBi" id="67vTL6XtOQE" role="2Oq$k0">
              <node concept="13iPFW" id="67vTL6XtOFe" role="2Oq$k0" />
              <node concept="3TrEf2" id="67vTL6XtP1P" role="2OqNvi">
                <ref role="3Tt5mk" to="qyjc:2XsxYmZ1hR3" resolve="ref" />
              </node>
            </node>
            <node concept="3TrcHB" id="67vTL6XtPqX" role="2OqNvi">
              <ref role="3TsBF5" to="qyjc:67vTL6Xq54a" resolve="applicationName" />
            </node>
          </node>
        </node>
      </node>
    </node>
    <node concept="13i0hz" id="67vTL6XuRUx" role="13h7CS">
      <property role="TrG5h" value="getBootstrapServer" />
      <node concept="3Tm1VV" id="67vTL6XuRUy" role="1B3o_S" />
      <node concept="17QB3L" id="67vTL6XuRVk" role="3clF45" />
      <node concept="3clFbS" id="67vTL6XuRU$" role="3clF47">
        <node concept="3cpWs6" id="67vTL6XuRVZ" role="3cqZAp">
          <node concept="2OqwBi" id="67vTL6XuSrE" role="3cqZAk">
            <node concept="2OqwBi" id="67vTL6XuS7I" role="2Oq$k0">
              <node concept="13iPFW" id="67vTL6XuRWi" role="2Oq$k0" />
              <node concept="3TrEf2" id="67vTL6XuSiT" role="2OqNvi">
                <ref role="3Tt5mk" to="qyjc:2XsxYmZ1hR3" resolve="ref" />
              </node>
            </node>
            <node concept="3TrcHB" id="67vTL6XuSDD" role="2OqNvi">
              <ref role="3TsBF5" to="qyjc:67vTL6Xq54c" resolve="bootstrapServer" />
            </node>
          </node>
        </node>
      </node>
    </node>
    <node concept="13hLZK" id="67vTL6XtODW" role="13h7CW">
      <node concept="3clFbS" id="67vTL6XtODX" role="2VODD2" />
    </node>
  </node>
  <node concept="13h7C7" id="67vTL6Xyovn">
    <property role="3GE5qa" value="EngineConfig" />
    <ref role="13h7C2" to="qyjc:5$bixu1eN8W" resolve="EngineConfig" />
    <node concept="13i0hz" id="67vTL6Xyovy" role="13h7CS">
      <property role="TrG5h" value="getSparkSession" />
      <node concept="3Tm1VV" id="67vTL6Xyovz" role="1B3o_S" />
      <node concept="3Tqbb2" id="67vTL6XyovM" role="3clF45">
        <ref role="ehGHo" to="qyjc:67vTL6Xyhcb" resolve="SparkSession" />
      </node>
      <node concept="3clFbS" id="67vTL6Xyov_" role="3clF47">
        <node concept="3cpWs6" id="67vTL6Xyowt" role="3cqZAp">
          <node concept="2OqwBi" id="67vTL6XyoFf" role="3cqZAk">
            <node concept="13iPFW" id="67vTL6Xyow$" role="2Oq$k0" />
            <node concept="3TrEf2" id="67vTL6XyoPz" role="2OqNvi">
              <ref role="3Tt5mk" to="qyjc:67vTL6Xyhc9" resolve="sparkSession" />
            </node>
          </node>
        </node>
      </node>
    </node>
    <node concept="13hLZK" id="67vTL6Xyovo" role="13h7CW">
      <node concept="3clFbS" id="67vTL6Xyovp" role="2VODD2" />
    </node>
  </node>
</model>

