<?xml version="1.0" encoding="UTF-8"?>
<model ref="r:5b903417-c6eb-4585-9637-67e9bcc9f50c(hfu.mps.StreamSysT.typesystem)">
  <persistence version="9" />
  <languages>
    <use id="7a5dda62-9140-4668-ab76-d5ed1746f2b2" name="jetbrains.mps.lang.typesystem" version="5" />
    <devkit ref="00000000-0000-4000-0000-1de82b3a4936(jetbrains.mps.devkit.aspect.typesystem)" />
  </languages>
  <imports>
    <import index="o8zo" ref="r:314576fc-3aee-4386-a0a5-a38348ac317d(jetbrains.mps.scope)" />
    <import index="qyjc" ref="r:c6b19f28-306e-466c-a8f5-aa6eea606f72(hfu.mps.StreamSysT.structure)" implicit="true" />
    <import index="tpee" ref="r:00000000-0000-4000-0000-011c895902ca(jetbrains.mps.baseLanguage.structure)" implicit="true" />
    <import index="tpck" ref="r:00000000-0000-4000-0000-011c89590288(jetbrains.mps.lang.core.structure)" implicit="true" />
    <import index="wyt6" ref="6354ebe7-c22a-4a0f-ac54-50b52ab9b065/java:java.lang(JDK/)" implicit="true" />
  </imports>
  <registry>
    <language id="f3061a53-9226-4cc5-a443-f952ceaf5816" name="jetbrains.mps.baseLanguage">
      <concept id="4836112446988635817" name="jetbrains.mps.baseLanguage.structure.UndefinedType" flags="in" index="2jxLKc" />
      <concept id="1465982738277781862" name="jetbrains.mps.baseLanguage.structure.PlaceholderMember" flags="ng" index="2tJIrI" />
      <concept id="1188207840427" name="jetbrains.mps.baseLanguage.structure.AnnotationInstance" flags="nn" index="2AHcQZ">
        <reference id="1188208074048" name="annotation" index="2AI5Lk" />
      </concept>
      <concept id="1188208481402" name="jetbrains.mps.baseLanguage.structure.HasAnnotation" flags="ng" index="2AJDlI">
        <child id="1188208488637" name="annotation" index="2AJF6D" />
      </concept>
      <concept id="1197027756228" name="jetbrains.mps.baseLanguage.structure.DotExpression" flags="nn" index="2OqwBi">
        <child id="1197027771414" name="operand" index="2Oq$k0" />
        <child id="1197027833540" name="operation" index="2OqNvi" />
      </concept>
      <concept id="1070475587102" name="jetbrains.mps.baseLanguage.structure.SuperConstructorInvocation" flags="nn" index="XkiVB" />
      <concept id="1070475926800" name="jetbrains.mps.baseLanguage.structure.StringLiteral" flags="nn" index="Xl_RD">
        <property id="1070475926801" name="value" index="Xl_RC" />
      </concept>
      <concept id="1068390468198" name="jetbrains.mps.baseLanguage.structure.ClassConcept" flags="ig" index="312cEu">
        <child id="1165602531693" name="superclass" index="1zkMxy" />
      </concept>
      <concept id="1068431474542" name="jetbrains.mps.baseLanguage.structure.VariableDeclaration" flags="ng" index="33uBYm">
        <child id="1068431790190" name="initializer" index="33vP2m" />
      </concept>
      <concept id="1068498886296" name="jetbrains.mps.baseLanguage.structure.VariableReference" flags="nn" index="37vLTw">
        <reference id="1068581517664" name="variableDeclaration" index="3cqZAo" />
      </concept>
      <concept id="1068498886292" name="jetbrains.mps.baseLanguage.structure.ParameterDeclaration" flags="ir" index="37vLTG" />
      <concept id="1225271177708" name="jetbrains.mps.baseLanguage.structure.StringType" flags="in" index="17QB3L" />
      <concept id="4972933694980447171" name="jetbrains.mps.baseLanguage.structure.BaseVariableDeclaration" flags="ng" index="19Szcq">
        <child id="5680397130376446158" name="type" index="1tU5fm" />
      </concept>
      <concept id="1068580123132" name="jetbrains.mps.baseLanguage.structure.BaseMethodDeclaration" flags="ng" index="3clF44">
        <child id="1068580123133" name="returnType" index="3clF45" />
        <child id="1068580123134" name="parameter" index="3clF46" />
        <child id="1068580123135" name="body" index="3clF47" />
      </concept>
      <concept id="1068580123165" name="jetbrains.mps.baseLanguage.structure.InstanceMethodDeclaration" flags="ig" index="3clFb_" />
      <concept id="1068580123152" name="jetbrains.mps.baseLanguage.structure.EqualsExpression" flags="nn" index="3clFbC" />
      <concept id="1068580123155" name="jetbrains.mps.baseLanguage.structure.ExpressionStatement" flags="nn" index="3clFbF">
        <child id="1068580123156" name="expression" index="3clFbG" />
      </concept>
      <concept id="1068580123157" name="jetbrains.mps.baseLanguage.structure.Statement" flags="nn" index="3clFbH" />
      <concept id="1068580123159" name="jetbrains.mps.baseLanguage.structure.IfStatement" flags="nn" index="3clFbJ">
        <child id="1068580123160" name="condition" index="3clFbw" />
        <child id="1068580123161" name="ifTrue" index="3clFbx" />
      </concept>
      <concept id="1068580123136" name="jetbrains.mps.baseLanguage.structure.StatementList" flags="sn" stub="5293379017992965193" index="3clFbS">
        <child id="1068581517665" name="statement" index="3cqZAp" />
      </concept>
      <concept id="1068580123140" name="jetbrains.mps.baseLanguage.structure.ConstructorDeclaration" flags="ig" index="3clFbW" />
      <concept id="1068581242875" name="jetbrains.mps.baseLanguage.structure.PlusExpression" flags="nn" index="3cpWs3" />
      <concept id="1068581242864" name="jetbrains.mps.baseLanguage.structure.LocalVariableDeclarationStatement" flags="nn" index="3cpWs8">
        <child id="1068581242865" name="localVariableDeclaration" index="3cpWs9" />
      </concept>
      <concept id="1068581242863" name="jetbrains.mps.baseLanguage.structure.LocalVariableDeclaration" flags="nr" index="3cpWsn" />
      <concept id="1068581517677" name="jetbrains.mps.baseLanguage.structure.VoidType" flags="in" index="3cqZAl" />
      <concept id="1204053956946" name="jetbrains.mps.baseLanguage.structure.IMethodCall" flags="ng" index="1ndlxa">
        <reference id="1068499141037" name="baseMethodDeclaration" index="37wK5l" />
        <child id="1068499141038" name="actualArgument" index="37wK5m" />
      </concept>
      <concept id="1107461130800" name="jetbrains.mps.baseLanguage.structure.Classifier" flags="ng" index="3pOWGL">
        <child id="5375687026011219971" name="member" index="jymVt" unordered="true" />
      </concept>
      <concept id="1107535904670" name="jetbrains.mps.baseLanguage.structure.ClassifierType" flags="in" index="3uibUv">
        <reference id="1107535924139" name="classifier" index="3uigEE" />
      </concept>
      <concept id="1081773326031" name="jetbrains.mps.baseLanguage.structure.BinaryOperation" flags="nn" index="3uHJSO">
        <child id="1081773367579" name="rightExpression" index="3uHU7w" />
        <child id="1081773367580" name="leftExpression" index="3uHU7B" />
      </concept>
      <concept id="1073239437375" name="jetbrains.mps.baseLanguage.structure.NotEqualsExpression" flags="nn" index="3y3z36" />
      <concept id="1178549954367" name="jetbrains.mps.baseLanguage.structure.IVisible" flags="ng" index="1B3ioH">
        <child id="1178549979242" name="visibility" index="1B3o_S" />
      </concept>
      <concept id="1146644602865" name="jetbrains.mps.baseLanguage.structure.PublicVisibility" flags="nn" index="3Tm1VV" />
      <concept id="1080120340718" name="jetbrains.mps.baseLanguage.structure.AndExpression" flags="nn" index="1Wc70l" />
    </language>
    <language id="fd392034-7849-419d-9071-12563d152375" name="jetbrains.mps.baseLanguage.closures">
      <concept id="1199569711397" name="jetbrains.mps.baseLanguage.closures.structure.ClosureLiteral" flags="nn" index="1bVj0M">
        <child id="1199569906740" name="parameter" index="1bW2Oz" />
        <child id="1199569916463" name="body" index="1bW5cS" />
      </concept>
    </language>
    <language id="7a5dda62-9140-4668-ab76-d5ed1746f2b2" name="jetbrains.mps.lang.typesystem">
      <concept id="1175517767210" name="jetbrains.mps.lang.typesystem.structure.ReportErrorStatement" flags="nn" index="2MkqsV">
        <child id="1175517851849" name="errorString" index="2MkJ7o" />
      </concept>
      <concept id="1195213580585" name="jetbrains.mps.lang.typesystem.structure.AbstractCheckingRule" flags="ig" index="18hYwZ">
        <child id="1195213635060" name="body" index="18ibNy" />
      </concept>
      <concept id="1195214364922" name="jetbrains.mps.lang.typesystem.structure.NonTypesystemRule" flags="ig" index="18kY7G" />
      <concept id="3937244445246642777" name="jetbrains.mps.lang.typesystem.structure.AbstractReportStatement" flags="ng" index="1urrMJ">
        <child id="3937244445246642781" name="nodeToReport" index="1urrMF" />
      </concept>
      <concept id="1174642788531" name="jetbrains.mps.lang.typesystem.structure.ConceptReference" flags="ig" index="1YaCAy">
        <reference id="1174642800329" name="concept" index="1YaFvo" />
      </concept>
      <concept id="1174648085619" name="jetbrains.mps.lang.typesystem.structure.AbstractRule" flags="ng" index="1YuPPy">
        <child id="1174648101952" name="applicableNode" index="1YuTPh" />
      </concept>
      <concept id="1174650418652" name="jetbrains.mps.lang.typesystem.structure.ApplicableNodeReference" flags="nn" index="1YBJjd">
        <reference id="1174650432090" name="applicableNode" index="1YBMHb" />
      </concept>
    </language>
    <language id="7866978e-a0f0-4cc7-81bc-4d213d9375e1" name="jetbrains.mps.lang.smodel">
      <concept id="1177026924588" name="jetbrains.mps.lang.smodel.structure.RefConcept_Reference" flags="nn" index="chp4Y">
        <reference id="1177026940964" name="conceptDeclaration" index="cht4Q" />
      </concept>
      <concept id="1138411891628" name="jetbrains.mps.lang.smodel.structure.SNodeOperation" flags="nn" index="eCIE_">
        <child id="1144104376918" name="parameter" index="1xVPHs" />
      </concept>
      <concept id="4693937538533521280" name="jetbrains.mps.lang.smodel.structure.OfConceptOperation" flags="ng" index="v3k3i">
        <child id="4693937538533538124" name="requestedConcept" index="v3oSu" />
      </concept>
      <concept id="2396822768958367367" name="jetbrains.mps.lang.smodel.structure.AbstractTypeCastExpression" flags="nn" index="$5XWr">
        <child id="6733348108486823193" name="leftExpression" index="1m5AlR" />
        <child id="3906496115198199033" name="conceptArgument" index="3oSUPX" />
      </concept>
      <concept id="1171407110247" name="jetbrains.mps.lang.smodel.structure.Node_GetAncestorOperation" flags="nn" index="2Xjw5R" />
      <concept id="1144101972840" name="jetbrains.mps.lang.smodel.structure.OperationParm_Concept" flags="ng" index="1xMEDy">
        <child id="1207343664468" name="conceptArgument" index="ri$Ld" />
      </concept>
      <concept id="1140137987495" name="jetbrains.mps.lang.smodel.structure.SNodeTypeCastExpression" flags="nn" index="1PxgMI" />
      <concept id="1138055754698" name="jetbrains.mps.lang.smodel.structure.SNodeType" flags="in" index="3Tqbb2">
        <reference id="1138405853777" name="concept" index="ehGHo" />
      </concept>
      <concept id="1138056022639" name="jetbrains.mps.lang.smodel.structure.SPropertyAccess" flags="nn" index="3TrcHB">
        <reference id="1138056395725" name="property" index="3TsBF5" />
      </concept>
      <concept id="1138056143562" name="jetbrains.mps.lang.smodel.structure.SLinkAccess" flags="nn" index="3TrEf2">
        <reference id="1138056516764" name="link" index="3Tt5mk" />
      </concept>
      <concept id="1138056282393" name="jetbrains.mps.lang.smodel.structure.SLinkListAccess" flags="nn" index="3Tsc0h">
        <reference id="1138056546658" name="link" index="3TtcxE" />
      </concept>
    </language>
    <language id="ceab5195-25ea-4f22-9b92-103b95ca8c0c" name="jetbrains.mps.lang.core">
      <concept id="1133920641626" name="jetbrains.mps.lang.core.structure.BaseConcept" flags="ng" index="2VYdi">
        <property id="1193676396447" name="virtualPackage" index="3GE5qa" />
      </concept>
      <concept id="1169194658468" name="jetbrains.mps.lang.core.structure.INamedConcept" flags="ng" index="TrEIO">
        <property id="1169194664001" name="name" index="TrG5h" />
      </concept>
    </language>
    <language id="83888646-71ce-4f1c-9c53-c54016f6ad4f" name="jetbrains.mps.baseLanguage.collections">
      <concept id="1204796164442" name="jetbrains.mps.baseLanguage.collections.structure.InternalSequenceOperation" flags="nn" index="23sCx2">
        <child id="1204796294226" name="closure" index="23t8la" />
      </concept>
      <concept id="1204980550705" name="jetbrains.mps.baseLanguage.collections.structure.VisitAllOperation" flags="nn" index="2es0OD" />
      <concept id="1151689724996" name="jetbrains.mps.baseLanguage.collections.structure.SequenceType" flags="in" index="A3Dl8">
        <child id="1151689745422" name="elementType" index="A3Ik2" />
      </concept>
      <concept id="1203518072036" name="jetbrains.mps.baseLanguage.collections.structure.SmartClosureParameterDeclaration" flags="ig" index="Rh6nW" />
      <concept id="1176501494711" name="jetbrains.mps.baseLanguage.collections.structure.IsNotEmptyOperation" flags="nn" index="3GX2aA" />
    </language>
  </registry>
  <node concept="18kY7G" id="575gSEdagW6">
    <property role="TrG5h" value="check_RunPipelineOnlyOnce" />
    <property role="3GE5qa" value="Pipeline" />
    <node concept="3clFbS" id="575gSEdagW7" role="18ibNy">
      <node concept="3clFbJ" id="575gSEdaoVd" role="3cqZAp">
        <node concept="3clFbS" id="575gSEdaoVf" role="3clFbx">
          <node concept="2MkqsV" id="575gSEdap_g" role="3cqZAp">
            <node concept="Xl_RD" id="575gSEdap_E" role="2MkJ7o">
              <property role="Xl_RC" value="Already run all pipelines!" />
            </node>
            <node concept="1YBJjd" id="575gSEdap_v" role="1urrMF">
              <ref role="1YBMHb" node="575gSEdagW9" resolve="node" />
            </node>
          </node>
        </node>
        <node concept="2OqwBi" id="575gSEdappz" role="3clFbw">
          <node concept="2OqwBi" id="575gSEdalHH" role="2Oq$k0">
            <node concept="2OqwBi" id="575gSEdaiW2" role="2Oq$k0">
              <node concept="2OqwBi" id="575gSEdahAq" role="2Oq$k0">
                <node concept="2OqwBi" id="575gSEdah6K" role="2Oq$k0">
                  <node concept="1YBJjd" id="575gSEdagWi" role="2Oq$k0">
                    <ref role="1YBMHb" node="575gSEdagW9" resolve="node" />
                  </node>
                  <node concept="2Xjw5R" id="575gSEdahl4" role="2OqNvi">
                    <node concept="1xMEDy" id="575gSEdahl6" role="1xVPHs">
                      <node concept="chp4Y" id="575gSEdahNG" role="ri$Ld">
                        <ref role="cht4Q" to="qyjc:5T7UbTDgCbd" resolve="StreamTestMethod" />
                      </node>
                    </node>
                  </node>
                </node>
                <node concept="3TrEf2" id="575gSEdaiEf" role="2OqNvi">
                  <ref role="3Tt5mk" to="tpee:fzclF7Z" resolve="body" />
                </node>
              </node>
              <node concept="3Tsc0h" id="575gSEdajfz" role="2OqNvi">
                <ref role="3TtcxE" to="tpee:fzcqZ_x" resolve="statement" />
              </node>
            </node>
            <node concept="v3k3i" id="575gSEdaoR7" role="2OqNvi">
              <node concept="chp4Y" id="575gSEdaoSA" role="v3oSu">
                <ref role="cht4Q" to="qyjc:575gSEd8CXW" resolve="RunAllPipelines" />
              </node>
            </node>
          </node>
          <node concept="3GX2aA" id="575gSEdap$O" role="2OqNvi" />
        </node>
      </node>
      <node concept="3clFbH" id="575gSEdapPB" role="3cqZAp" />
      <node concept="3cpWs8" id="575gSEdaFdT" role="3cqZAp">
        <node concept="3cpWsn" id="575gSEdaFdW" role="3cpWs9">
          <property role="TrG5h" value="runs" />
          <node concept="2OqwBi" id="575gSEdaKyM" role="33vP2m">
            <node concept="2OqwBi" id="575gSEdaHlD" role="2Oq$k0">
              <node concept="2OqwBi" id="575gSEdaGgN" role="2Oq$k0">
                <node concept="2OqwBi" id="575gSEdaFjW" role="2Oq$k0">
                  <node concept="1YBJjd" id="575gSEdaFf9" role="2Oq$k0">
                    <ref role="1YBMHb" node="575gSEdagW9" resolve="node" />
                  </node>
                  <node concept="2Xjw5R" id="575gSEdaFJo" role="2OqNvi">
                    <node concept="1xMEDy" id="575gSEdaFJq" role="1xVPHs">
                      <node concept="chp4Y" id="575gSEdaFLi" role="ri$Ld">
                        <ref role="cht4Q" to="qyjc:5T7UbTDgCbd" resolve="StreamTestMethod" />
                      </node>
                    </node>
                  </node>
                </node>
                <node concept="3TrEf2" id="575gSEdaH6P" role="2OqNvi">
                  <ref role="3Tt5mk" to="tpee:fzclF7Z" resolve="body" />
                </node>
              </node>
              <node concept="3Tsc0h" id="575gSEdaHKb" role="2OqNvi">
                <ref role="3TtcxE" to="tpee:fzcqZ_x" resolve="statement" />
              </node>
            </node>
            <node concept="v3k3i" id="575gSEdaMJo" role="2OqNvi">
              <node concept="chp4Y" id="575gSEdaMKB" role="v3oSu">
                <ref role="cht4Q" to="qyjc:575gSEd5WFG" resolve="RunPipeline" />
              </node>
            </node>
          </node>
          <node concept="A3Dl8" id="575gSEdaN0t" role="1tU5fm">
            <node concept="3Tqbb2" id="575gSEdaN4n" role="A3Ik2">
              <ref role="ehGHo" to="qyjc:575gSEd5WFG" resolve="RunPipeline" />
            </node>
          </node>
        </node>
      </node>
      <node concept="3clFbF" id="575gSEdaQ_8" role="3cqZAp">
        <node concept="2OqwBi" id="575gSEdaNq3" role="3clFbG">
          <node concept="37vLTw" id="575gSEdaNpq" role="2Oq$k0">
            <ref role="3cqZAo" node="575gSEdaFdW" resolve="runs" />
          </node>
          <node concept="2es0OD" id="575gSEdaPpx" role="2OqNvi">
            <node concept="1bVj0M" id="575gSEdaPp$" role="23t8la">
              <node concept="3clFbS" id="575gSEdaPp_" role="1bW5cS">
                <node concept="3clFbJ" id="575gSEdaQHb" role="3cqZAp">
                  <node concept="1Wc70l" id="575gSEdaS_W" role="3clFbw">
                    <node concept="3y3z36" id="575gSEdaTbH" role="3uHU7w">
                      <node concept="1YBJjd" id="575gSEdaTtF" role="3uHU7w">
                        <ref role="1YBMHb" node="575gSEdagW9" resolve="node" />
                      </node>
                      <node concept="37vLTw" id="575gSEdaSYq" role="3uHU7B">
                        <ref role="3cqZAo" node="575gSEdaPpA" resolve="it" />
                      </node>
                    </node>
                    <node concept="3clFbC" id="575gSEdaRbv" role="3uHU7B">
                      <node concept="2OqwBi" id="4vp2seWfTwy" role="3uHU7B">
                        <node concept="2OqwBi" id="575gSEdaQP8" role="2Oq$k0">
                          <node concept="37vLTw" id="575gSEdaQIU" role="2Oq$k0">
                            <ref role="3cqZAo" node="575gSEdaPpA" resolve="it" />
                          </node>
                          <node concept="3TrEf2" id="4vp2seWfTcm" role="2OqNvi">
                            <ref role="3Tt5mk" to="qyjc:4vp2seWeOvG" resolve="ref" />
                          </node>
                        </node>
                        <node concept="3TrEf2" id="4vp2seWfTKG" role="2OqNvi">
                          <ref role="3Tt5mk" to="qyjc:7MdWNyBagaw" resolve="ref" />
                        </node>
                      </node>
                      <node concept="2OqwBi" id="4vp2seWfUtV" role="3uHU7w">
                        <node concept="2OqwBi" id="575gSEdaRrK" role="2Oq$k0">
                          <node concept="1YBJjd" id="575gSEdaRla" role="2Oq$k0">
                            <ref role="1YBMHb" node="575gSEdagW9" resolve="node" />
                          </node>
                          <node concept="3TrEf2" id="4vp2seWfUc9" role="2OqNvi">
                            <ref role="3Tt5mk" to="qyjc:4vp2seWeOvG" resolve="ref" />
                          </node>
                        </node>
                        <node concept="3TrEf2" id="4vp2seWfVbf" role="2OqNvi">
                          <ref role="3Tt5mk" to="qyjc:7MdWNyBagaw" resolve="ref" />
                        </node>
                      </node>
                    </node>
                  </node>
                  <node concept="3clFbS" id="575gSEdaQHd" role="3clFbx">
                    <node concept="2MkqsV" id="575gSEdazbl" role="3cqZAp">
                      <node concept="3cpWs3" id="575gSEda$_M" role="2MkJ7o">
                        <node concept="Xl_RD" id="575gSEda$_P" role="3uHU7w">
                          <property role="Xl_RC" value=" can't run multiple times!" />
                        </node>
                        <node concept="3cpWs3" id="575gSEdazt_" role="3uHU7B">
                          <node concept="Xl_RD" id="575gSEdazb$" role="3uHU7B">
                            <property role="Xl_RC" value="Pipeline " />
                          </node>
                          <node concept="2OqwBi" id="575gSEda$7O" role="3uHU7w">
                            <node concept="2OqwBi" id="4vp2seWfVpc" role="2Oq$k0">
                              <node concept="2OqwBi" id="575gSEdaz$J" role="2Oq$k0">
                                <node concept="1YBJjd" id="575gSEdaztR" role="2Oq$k0">
                                  <ref role="1YBMHb" node="575gSEdagW9" resolve="node" />
                                </node>
                                <node concept="3TrEf2" id="4vp2seWfVia" role="2OqNvi">
                                  <ref role="3Tt5mk" to="qyjc:4vp2seWeOvG" resolve="ref" />
                                </node>
                              </node>
                              <node concept="3TrEf2" id="4vp2seWfV_J" role="2OqNvi">
                                <ref role="3Tt5mk" to="qyjc:7MdWNyBagaw" resolve="ref" />
                              </node>
                            </node>
                            <node concept="3TrcHB" id="4vp2seWfW3r" role="2OqNvi">
                              <ref role="3TsBF5" to="tpck:h0TrG11" resolve="name" />
                            </node>
                          </node>
                        </node>
                      </node>
                      <node concept="1YBJjd" id="575gSEda_IC" role="1urrMF">
                        <ref role="1YBMHb" node="575gSEdagW9" resolve="node" />
                      </node>
                    </node>
                  </node>
                </node>
              </node>
              <node concept="Rh6nW" id="575gSEdaPpA" role="1bW2Oz">
                <property role="TrG5h" value="it" />
                <node concept="2jxLKc" id="575gSEdaPpB" role="1tU5fm" />
              </node>
            </node>
          </node>
        </node>
      </node>
    </node>
    <node concept="1YaCAy" id="575gSEdagW9" role="1YuTPh">
      <property role="TrG5h" value="node" />
      <ref role="1YaFvo" to="qyjc:575gSEd5WFG" resolve="RunPipeline" />
    </node>
  </node>
  <node concept="312cEu" id="4vp2seWi1Se">
    <property role="TrG5h" value="NamedListScope" />
    <node concept="2tJIrI" id="4vp2seWi1Ud" role="jymVt" />
    <node concept="3Tm1VV" id="4vp2seWi1Sf" role="1B3o_S" />
    <node concept="3uibUv" id="4vp2seWi1Tq" role="1zkMxy">
      <ref role="3uigEE" to="o8zo:4IP40Bi3e_R" resolve="ListScope" />
    </node>
    <node concept="3clFbW" id="4vp2seWi1Yq" role="jymVt">
      <node concept="3cqZAl" id="4vp2seWi1Yr" role="3clF45" />
      <node concept="3Tm1VV" id="4vp2seWi1Ys" role="1B3o_S" />
      <node concept="3clFbS" id="4vp2seWi1Yt" role="3clF47">
        <node concept="XkiVB" id="4vp2seWi1YQ" role="3cqZAp">
          <ref role="37wK5l" to="o8zo:4IP40Bi3e_T" resolve="ListScope" />
          <node concept="37vLTw" id="4vp2seWi1YR" role="37wK5m">
            <ref role="3cqZAo" node="4vp2seWi1YN" resolve="elements" />
          </node>
        </node>
      </node>
      <node concept="37vLTG" id="4vp2seWi1YN" role="3clF46">
        <property role="TrG5h" value="elements" />
        <node concept="A3Dl8" id="4vp2seWi1YO" role="1tU5fm">
          <node concept="3Tqbb2" id="4vp2seWi1YP" role="A3Ik2">
            <ref role="ehGHo" to="tpck:h0TrEE$" resolve="INamedConcept" />
          </node>
        </node>
      </node>
    </node>
    <node concept="3clFb_" id="4vp2seWi26t" role="jymVt">
      <property role="TrG5h" value="getName" />
      <node concept="17QB3L" id="4vp2seWi26u" role="3clF45" />
      <node concept="3Tm1VV" id="4vp2seWi26v" role="1B3o_S" />
      <node concept="37vLTG" id="4vp2seWi26x" role="3clF46">
        <property role="TrG5h" value="child" />
        <node concept="3Tqbb2" id="4vp2seWi26y" role="1tU5fm" />
      </node>
      <node concept="3clFbS" id="4vp2seWi26z" role="3clF47">
        <node concept="3clFbF" id="4vp2seWi2bi" role="3cqZAp">
          <node concept="2OqwBi" id="4vp2seWi2He" role="3clFbG">
            <node concept="1PxgMI" id="4vp2seWi2yh" role="2Oq$k0">
              <node concept="chp4Y" id="4vp2seWi2$H" role="3oSUPX">
                <ref role="cht4Q" to="tpck:h0TrEE$" resolve="INamedConcept" />
              </node>
              <node concept="37vLTw" id="4vp2seWi2bh" role="1m5AlR">
                <ref role="3cqZAo" node="4vp2seWi26x" resolve="child" />
              </node>
            </node>
            <node concept="3TrcHB" id="4vp2seWi2Py" role="2OqNvi">
              <ref role="3TsBF5" to="tpck:h0TrG11" resolve="name" />
            </node>
          </node>
        </node>
      </node>
      <node concept="2AHcQZ" id="4vp2seWi26$" role="2AJF6D">
        <ref role="2AI5Lk" to="wyt6:~Override" resolve="Override" />
      </node>
    </node>
  </node>
</model>

