<?xml version="1.0" encoding="UTF-8"?>
<model ref="r:b90687fd-a15d-4add-89dc-61d5110bfa8e(hfu.mps.Time.constraints)">
  <persistence version="9" />
  <languages>
    <use id="5dae8159-ab99-46bb-a40d-0cee30ee7018" name="jetbrains.mps.lang.constraints.rules.kinds" version="0" />
    <use id="ea3159bf-f48e-4720-bde2-86dba75f0d34" name="jetbrains.mps.lang.context.defs" version="0" />
    <use id="e51810c5-7308-4642-bcb6-469e61b5dd18" name="jetbrains.mps.lang.constraints.msg.specification" version="0" />
    <use id="134c38d4-e3af-4d9e-b069-1c7df0a4005d" name="jetbrains.mps.lang.constraints.rules.skeleton" version="0" />
    <use id="b3551702-269c-4f05-ba61-58060cef4292" name="jetbrains.mps.lang.rulesAndMessages" version="0" />
    <use id="3f4bc5f5-c6c1-4a28-8b10-c83066ffa4a1" name="jetbrains.mps.lang.constraints" version="6" />
    <use id="13744753-c81f-424a-9c1b-cf8943bf4e86" name="jetbrains.mps.lang.sharedConcepts" version="0" />
    <use id="3ad5badc-1d9c-461c-b7b1-fa2fcd0a0ae7" name="jetbrains.mps.lang.context" version="0" />
    <use id="ad93155d-79b2-4759-b10c-55123e763903" name="jetbrains.mps.lang.messages" version="0" />
    <devkit ref="00000000-0000-4000-0000-5604ebd4f22c(jetbrains.mps.devkit.aspect.constraints)" />
  </languages>
  <imports>
    <import index="o8zo" ref="r:314576fc-3aee-4386-a0a5-a38348ac317d(jetbrains.mps.scope)" />
    <import index="tpee" ref="r:00000000-0000-4000-0000-011c895902ca(jetbrains.mps.baseLanguage.structure)" />
    <import index="jyas" ref="r:55f07890-1eb3-4198-b15d-e4bd575dc4d1(hfu.mps.Time.structure)" implicit="true" />
    <import index="tpck" ref="r:00000000-0000-4000-0000-011c89590288(jetbrains.mps.lang.core.structure)" implicit="true" />
    <import index="wyt6" ref="6354ebe7-c22a-4a0f-ac54-50b52ab9b065/java:java.lang(JDK/)" implicit="true" />
  </imports>
  <registry>
    <language id="f3061a53-9226-4cc5-a443-f952ceaf5816" name="jetbrains.mps.baseLanguage">
      <concept id="1188207840427" name="jetbrains.mps.baseLanguage.structure.AnnotationInstance" flags="nn" index="2AHcQZ">
        <reference id="1188208074048" name="annotation" index="2AI5Lk" />
      </concept>
      <concept id="1188208481402" name="jetbrains.mps.baseLanguage.structure.HasAnnotation" flags="ng" index="2AJDlI">
        <child id="1188208488637" name="annotation" index="2AJF6D" />
      </concept>
      <concept id="1197027756228" name="jetbrains.mps.baseLanguage.structure.DotExpression" flags="nn" index="2OqwBi">
        <child id="1197027771414" name="operand" index="2Oq$k0" />
        <child id="1197027833540" name="operation" index="2OqNvi" />
      </concept>
      <concept id="1145552977093" name="jetbrains.mps.baseLanguage.structure.GenericNewExpression" flags="nn" index="2ShNRf">
        <child id="1145553007750" name="creator" index="2ShVmc" />
      </concept>
      <concept id="1137021947720" name="jetbrains.mps.baseLanguage.structure.ConceptFunction" flags="in" index="2VMwT0">
        <child id="1137022507850" name="body" index="2VODD2" />
      </concept>
      <concept id="1182160077978" name="jetbrains.mps.baseLanguage.structure.AnonymousClassCreator" flags="nn" index="YeOm9">
        <child id="1182160096073" name="cls" index="YeSDq" />
      </concept>
      <concept id="1068431474542" name="jetbrains.mps.baseLanguage.structure.VariableDeclaration" flags="ng" index="33uBYm">
        <child id="1068431790190" name="initializer" index="33vP2m" />
      </concept>
      <concept id="1068498886296" name="jetbrains.mps.baseLanguage.structure.VariableReference" flags="nn" index="37vLTw">
        <reference id="1068581517664" name="variableDeclaration" index="3cqZAo" />
      </concept>
      <concept id="1068498886292" name="jetbrains.mps.baseLanguage.structure.ParameterDeclaration" flags="ir" index="37vLTG" />
      <concept id="1225271177708" name="jetbrains.mps.baseLanguage.structure.StringType" flags="in" index="17QB3L" />
      <concept id="4972933694980447171" name="jetbrains.mps.baseLanguage.structure.BaseVariableDeclaration" flags="ng" index="19Szcq">
        <child id="5680397130376446158" name="type" index="1tU5fm" />
      </concept>
      <concept id="1068580123132" name="jetbrains.mps.baseLanguage.structure.BaseMethodDeclaration" flags="ng" index="3clF44">
        <child id="1068580123133" name="returnType" index="3clF45" />
        <child id="1068580123134" name="parameter" index="3clF46" />
        <child id="1068580123135" name="body" index="3clF47" />
      </concept>
      <concept id="1068580123165" name="jetbrains.mps.baseLanguage.structure.InstanceMethodDeclaration" flags="ig" index="3clFb_" />
      <concept id="1068580123155" name="jetbrains.mps.baseLanguage.structure.ExpressionStatement" flags="nn" index="3clFbF">
        <child id="1068580123156" name="expression" index="3clFbG" />
      </concept>
      <concept id="1068580123157" name="jetbrains.mps.baseLanguage.structure.Statement" flags="nn" index="3clFbH" />
      <concept id="1068580123136" name="jetbrains.mps.baseLanguage.structure.StatementList" flags="sn" stub="5293379017992965193" index="3clFbS">
        <child id="1068581517665" name="statement" index="3cqZAp" />
      </concept>
      <concept id="1068581242864" name="jetbrains.mps.baseLanguage.structure.LocalVariableDeclarationStatement" flags="nn" index="3cpWs8">
        <child id="1068581242865" name="localVariableDeclaration" index="3cpWs9" />
      </concept>
      <concept id="1068581242863" name="jetbrains.mps.baseLanguage.structure.LocalVariableDeclaration" flags="nr" index="3cpWsn" />
      <concept id="1079359253375" name="jetbrains.mps.baseLanguage.structure.ParenthesizedExpression" flags="nn" index="1eOMI4">
        <child id="1079359253376" name="expression" index="1eOMHV" />
      </concept>
      <concept id="1081516740877" name="jetbrains.mps.baseLanguage.structure.NotExpression" flags="nn" index="3fqX7Q">
        <child id="1081516765348" name="expression" index="3fr31v" />
      </concept>
      <concept id="1204053956946" name="jetbrains.mps.baseLanguage.structure.IMethodCall" flags="ng" index="1ndlxa">
        <reference id="1068499141037" name="baseMethodDeclaration" index="37wK5l" />
        <child id="1068499141038" name="actualArgument" index="37wK5m" />
      </concept>
      <concept id="1107461130800" name="jetbrains.mps.baseLanguage.structure.Classifier" flags="ng" index="3pOWGL">
        <property id="521412098689998745" name="nonStatic" index="2bfB8j" />
        <child id="5375687026011219971" name="member" index="jymVt" unordered="true" />
      </concept>
      <concept id="1178549954367" name="jetbrains.mps.baseLanguage.structure.IVisible" flags="ng" index="1B3ioH">
        <child id="1178549979242" name="visibility" index="1B3o_S" />
      </concept>
      <concept id="1146644602865" name="jetbrains.mps.baseLanguage.structure.PublicVisibility" flags="nn" index="3Tm1VV" />
      <concept id="1170345865475" name="jetbrains.mps.baseLanguage.structure.AnonymousClass" flags="ig" index="1Y3b0j">
        <reference id="1170346070688" name="classifier" index="1Y3XeK" />
      </concept>
    </language>
    <language id="3f4bc5f5-c6c1-4a28-8b10-c83066ffa4a1" name="jetbrains.mps.lang.constraints">
      <concept id="6702802731807351367" name="jetbrains.mps.lang.constraints.structure.ConstraintFunction_CanBeAChild" flags="in" index="9S07l" />
      <concept id="1202989658459" name="jetbrains.mps.lang.constraints.structure.ConstraintFunctionParameter_parentNode" flags="nn" index="nLn13" />
      <concept id="8966504967485224688" name="jetbrains.mps.lang.constraints.structure.ConstraintFunctionParameter_contextNode" flags="nn" index="2rP1CM" />
      <concept id="5564765827938091039" name="jetbrains.mps.lang.constraints.structure.ConstraintFunction_ReferentSearchScope_Scope" flags="ig" index="3dgokm" />
      <concept id="1213093968558" name="jetbrains.mps.lang.constraints.structure.ConceptConstraints" flags="ng" index="1M2fIO">
        <reference id="1213093996982" name="concept" index="1M2myG" />
        <child id="6702802731807737306" name="canBeChild" index="9Vyp8" />
        <child id="1213100494875" name="referent" index="1Mr941" />
      </concept>
      <concept id="1148687176410" name="jetbrains.mps.lang.constraints.structure.NodeReferentConstraint" flags="ng" index="1N5Pfh">
        <reference id="1148687202698" name="applicableLink" index="1N5Vy1" />
        <child id="1148687345559" name="searchScopeFactory" index="1N6uqs" />
      </concept>
    </language>
    <language id="7866978e-a0f0-4cc7-81bc-4d213d9375e1" name="jetbrains.mps.lang.smodel">
      <concept id="1177026924588" name="jetbrains.mps.lang.smodel.structure.RefConcept_Reference" flags="nn" index="chp4Y">
        <reference id="1177026940964" name="conceptDeclaration" index="cht4Q" />
      </concept>
      <concept id="1138411891628" name="jetbrains.mps.lang.smodel.structure.SNodeOperation" flags="nn" index="eCIE_">
        <child id="1144104376918" name="parameter" index="1xVPHs" />
      </concept>
      <concept id="4693937538533521280" name="jetbrains.mps.lang.smodel.structure.OfConceptOperation" flags="ng" index="v3k3i">
        <child id="4693937538533538124" name="requestedConcept" index="v3oSu" />
      </concept>
      <concept id="2396822768958367367" name="jetbrains.mps.lang.smodel.structure.AbstractTypeCastExpression" flags="nn" index="$5XWr">
        <child id="6733348108486823193" name="leftExpression" index="1m5AlR" />
        <child id="3906496115198199033" name="conceptArgument" index="3oSUPX" />
      </concept>
      <concept id="1171407110247" name="jetbrains.mps.lang.smodel.structure.Node_GetAncestorOperation" flags="nn" index="2Xjw5R" />
      <concept id="1139621453865" name="jetbrains.mps.lang.smodel.structure.Node_IsInstanceOfOperation" flags="nn" index="1mIQ4w">
        <child id="1177027386292" name="conceptArgument" index="cj9EA" />
      </concept>
      <concept id="1144101972840" name="jetbrains.mps.lang.smodel.structure.OperationParm_Concept" flags="ng" index="1xMEDy">
        <child id="1207343664468" name="conceptArgument" index="ri$Ld" />
      </concept>
      <concept id="1140137987495" name="jetbrains.mps.lang.smodel.structure.SNodeTypeCastExpression" flags="nn" index="1PxgMI" />
      <concept id="1138055754698" name="jetbrains.mps.lang.smodel.structure.SNodeType" flags="in" index="3Tqbb2">
        <reference id="1138405853777" name="concept" index="ehGHo" />
      </concept>
      <concept id="1138056022639" name="jetbrains.mps.lang.smodel.structure.SPropertyAccess" flags="nn" index="3TrcHB">
        <reference id="1138056395725" name="property" index="3TsBF5" />
      </concept>
      <concept id="1138056143562" name="jetbrains.mps.lang.smodel.structure.SLinkAccess" flags="nn" index="3TrEf2">
        <reference id="1138056516764" name="link" index="3Tt5mk" />
      </concept>
      <concept id="1138056282393" name="jetbrains.mps.lang.smodel.structure.SLinkListAccess" flags="nn" index="3Tsc0h">
        <reference id="1138056546658" name="link" index="3TtcxE" />
      </concept>
    </language>
    <language id="ceab5195-25ea-4f22-9b92-103b95ca8c0c" name="jetbrains.mps.lang.core">
      <concept id="1169194658468" name="jetbrains.mps.lang.core.structure.INamedConcept" flags="ng" index="TrEIO">
        <property id="1169194664001" name="name" index="TrG5h" />
      </concept>
    </language>
    <language id="83888646-71ce-4f1c-9c53-c54016f6ad4f" name="jetbrains.mps.baseLanguage.collections">
      <concept id="1176906603202" name="jetbrains.mps.baseLanguage.collections.structure.BinaryOperation" flags="nn" index="56pJg">
        <child id="1176906787974" name="rightExpression" index="576Qk" />
      </concept>
      <concept id="1151689724996" name="jetbrains.mps.baseLanguage.collections.structure.SequenceType" flags="in" index="A3Dl8">
        <child id="1151689745422" name="elementType" index="A3Ik2" />
      </concept>
      <concept id="1180964022718" name="jetbrains.mps.baseLanguage.collections.structure.ConcatOperation" flags="nn" index="3QWeyG" />
    </language>
  </registry>
  <node concept="1M2fIO" id="5Q9IfCXUUbV">
    <ref role="1M2myG" to="jyas:5Q9IfCXUkcw" resolve="TimeReference" />
    <node concept="1N5Pfh" id="5Q9IfCXUUbW" role="1Mr941">
      <ref role="1N5Vy1" to="jyas:5Q9IfCXUkcz" resolve="ref" />
      <node concept="3dgokm" id="6$tYh_Ab7ZW" role="1N6uqs">
        <node concept="3clFbS" id="6$tYh_Ab7ZX" role="2VODD2">
          <node concept="3cpWs8" id="6$tYh_AbkC4" role="3cqZAp">
            <node concept="3cpWsn" id="6$tYh_AbkC7" role="3cpWs9">
              <property role="TrG5h" value="globalTimes" />
              <node concept="A3Dl8" id="6$tYh_AbkC1" role="1tU5fm">
                <node concept="3Tqbb2" id="6$tYh_AbkHd" role="A3Ik2">
                  <ref role="ehGHo" to="jyas:5Q9IfCXUkc_" resolve="TimeDeclaration" />
                </node>
              </node>
              <node concept="2OqwBi" id="6$tYh_AdRM3" role="33vP2m">
                <node concept="2OqwBi" id="6$tYh_Abmem" role="2Oq$k0">
                  <node concept="2OqwBi" id="6$tYh_Ablsj" role="2Oq$k0">
                    <node concept="2rP1CM" id="6$tYh_AcMSO" role="2Oq$k0" />
                    <node concept="2Xjw5R" id="6$tYh_AblEC" role="2OqNvi">
                      <node concept="1xMEDy" id="6$tYh_AblEE" role="1xVPHs">
                        <node concept="chp4Y" id="6$tYh_AblL4" role="ri$Ld">
                          <ref role="cht4Q" to="tpee:fz12cDA" resolve="ClassConcept" />
                        </node>
                      </node>
                    </node>
                  </node>
                  <node concept="3Tsc0h" id="6$tYh_Acdwr" role="2OqNvi">
                    <ref role="3TtcxE" to="tpee:4EqhHTp4Mw3" resolve="member" />
                  </node>
                </node>
                <node concept="v3k3i" id="6$tYh_AdUm5" role="2OqNvi">
                  <node concept="chp4Y" id="6$tYh_AdUMc" role="v3oSu">
                    <ref role="cht4Q" to="jyas:5Q9IfCXUkc_" resolve="TimeDeclaration" />
                  </node>
                </node>
              </node>
            </node>
          </node>
          <node concept="3cpWs8" id="6$tYh_Aes$o" role="3cqZAp">
            <node concept="3cpWsn" id="6$tYh_Aes$r" role="3cpWs9">
              <property role="TrG5h" value="localTimes" />
              <node concept="A3Dl8" id="6$tYh_Aes$l" role="1tU5fm">
                <node concept="3Tqbb2" id="6$tYh_AesCc" role="A3Ik2">
                  <ref role="ehGHo" to="jyas:5Q9IfCXUkc_" resolve="TimeDeclaration" />
                </node>
              </node>
              <node concept="2OqwBi" id="6$tYh_AevGK" role="33vP2m">
                <node concept="2OqwBi" id="6$tYh_Aev3B" role="2Oq$k0">
                  <node concept="2OqwBi" id="6$tYh_AeuE3" role="2Oq$k0">
                    <node concept="2OqwBi" id="6$tYh_Aetg6" role="2Oq$k0">
                      <node concept="2rP1CM" id="6$tYh_Aet4L" role="2Oq$k0" />
                      <node concept="2Xjw5R" id="6$tYh_Aetor" role="2OqNvi">
                        <node concept="1xMEDy" id="6$tYh_Aetot" role="1xVPHs">
                          <node concept="chp4Y" id="6$tYh_Aetti" role="ri$Ld">
                            <ref role="cht4Q" to="tpee:6LFqxSRBTg8" resolve="MethodDeclaration" />
                          </node>
                        </node>
                      </node>
                    </node>
                    <node concept="3TrEf2" id="6$tYh_AeFNI" role="2OqNvi">
                      <ref role="3Tt5mk" to="tpee:fzclF7Z" resolve="body" />
                    </node>
                  </node>
                  <node concept="3Tsc0h" id="6$tYh_Aev8H" role="2OqNvi">
                    <ref role="3TtcxE" to="tpee:fzcqZ_x" resolve="statement" />
                  </node>
                </node>
                <node concept="v3k3i" id="6$tYh_AewZ0" role="2OqNvi">
                  <node concept="chp4Y" id="6$tYh_Aex3f" role="v3oSu">
                    <ref role="cht4Q" to="jyas:5Q9IfCXUkc_" resolve="TimeDeclaration" />
                  </node>
                </node>
              </node>
            </node>
          </node>
          <node concept="3clFbH" id="6$tYh_AeswH" role="3cqZAp" />
          <node concept="3clFbF" id="6$tYh_Ab81a" role="3cqZAp">
            <node concept="2ShNRf" id="6$tYh_Ab818" role="3clFbG">
              <node concept="YeOm9" id="6$tYh_Ab9T3" role="2ShVmc">
                <node concept="1Y3b0j" id="6$tYh_Ab9T6" role="YeSDq">
                  <property role="2bfB8j" value="true" />
                  <ref role="1Y3XeK" to="o8zo:4IP40Bi3e_R" resolve="ListScope" />
                  <ref role="37wK5l" to="o8zo:4IP40Bi3e_T" resolve="ListScope" />
                  <node concept="3Tm1VV" id="6$tYh_Ab9T7" role="1B3o_S" />
                  <node concept="3clFb_" id="6$tYh_Aba4D" role="jymVt">
                    <property role="TrG5h" value="getName" />
                    <node concept="17QB3L" id="6$tYh_Aba4E" role="3clF45" />
                    <node concept="3Tm1VV" id="6$tYh_Aba4F" role="1B3o_S" />
                    <node concept="37vLTG" id="6$tYh_Aba4H" role="3clF46">
                      <property role="TrG5h" value="child" />
                      <node concept="3Tqbb2" id="6$tYh_Aba4I" role="1tU5fm" />
                    </node>
                    <node concept="3clFbS" id="6$tYh_Aba4K" role="3clF47">
                      <node concept="3clFbF" id="6$tYh_Abagc" role="3cqZAp">
                        <node concept="2OqwBi" id="6$tYh_AbaTc" role="3clFbG">
                          <node concept="1PxgMI" id="6$tYh_AbaAa" role="2Oq$k0">
                            <node concept="chp4Y" id="6$tYh_Ac5Tz" role="3oSUPX">
                              <ref role="cht4Q" to="jyas:5Q9IfCXUkc_" resolve="TimeDeclaration" />
                            </node>
                            <node concept="37vLTw" id="6$tYh_Abagb" role="1m5AlR">
                              <ref role="3cqZAo" node="6$tYh_Aba4H" resolve="child" />
                            </node>
                          </node>
                          <node concept="3TrcHB" id="6$tYh_Ac6l4" role="2OqNvi">
                            <ref role="3TsBF5" to="tpck:h0TrG11" resolve="name" />
                          </node>
                        </node>
                      </node>
                    </node>
                    <node concept="2AHcQZ" id="6$tYh_Aba4L" role="2AJF6D">
                      <ref role="2AI5Lk" to="wyt6:~Override" resolve="Override" />
                    </node>
                  </node>
                  <node concept="2OqwBi" id="6$tYh_Aexss" role="37wK5m">
                    <node concept="37vLTw" id="6$tYh_AexaJ" role="2Oq$k0">
                      <ref role="3cqZAo" node="6$tYh_AbkC7" resolve="globalTimes" />
                    </node>
                    <node concept="3QWeyG" id="6$tYh_AexIb" role="2OqNvi">
                      <node concept="37vLTw" id="6$tYh_AexM_" role="576Qk">
                        <ref role="3cqZAo" node="6$tYh_Aes$r" resolve="localTimes" />
                      </node>
                    </node>
                  </node>
                </node>
              </node>
            </node>
          </node>
        </node>
      </node>
    </node>
  </node>
  <node concept="1M2fIO" id="1UrpsVVATYr">
    <ref role="1M2myG" to="jyas:5Q9IfCXUjXT" resolve="Time" />
    <node concept="9S07l" id="1UrpsVVATYs" role="9Vyp8">
      <node concept="3clFbS" id="1UrpsVVATYt" role="2VODD2">
        <node concept="3clFbF" id="1UrpsVVAU2p" role="3cqZAp">
          <node concept="3fqX7Q" id="1UrpsVVAUBw" role="3clFbG">
            <node concept="1eOMI4" id="1UrpsVVAUZ3" role="3fr31v">
              <node concept="2OqwBi" id="1UrpsVVAUBy" role="1eOMHV">
                <node concept="nLn13" id="1UrpsVVAUBz" role="2Oq$k0" />
                <node concept="1mIQ4w" id="1UrpsVVAUB$" role="2OqNvi">
                  <node concept="chp4Y" id="1UrpsVVAUB_" role="cj9EA">
                    <ref role="cht4Q" to="tpee:fzclF80" resolve="StatementList" />
                  </node>
                </node>
              </node>
            </node>
          </node>
        </node>
      </node>
    </node>
  </node>
</model>

