<?xml version="1.0" encoding="UTF-8"?>
<model ref="r:42d89a1b-627a-47d8-87c4-6ac7ef7c412b(hfu.mps.Time.actions)">
  <persistence version="9" />
  <languages>
    <use id="aee9cad2-acd4-4608-aef2-0004f6a1cdbd" name="jetbrains.mps.lang.actions" version="4" />
    <devkit ref="fbc25dd2-5da4-483a-8b19-70928e1b62d7(jetbrains.mps.devkit.general-purpose)" />
  </languages>
  <imports />
  <registry />
</model>

